<?xml version="1.0" standalone="no"?>
<!DOCTYPE svg PUBLIC "-//W3C//DTD SVG 1.1//EN" "http://www.w3.org/Graphics/SVG/1.1/DTD/svg11.dtd" >
<svg xmlns="http://www.w3.org/2000/svg">
<metadata></metadata>
<defs>
<font id="proxima_novasemibold" horiz-adv-x="1378" >
<font-face units-per-em="2048" ascent="1618" descent="-430" />
<missing-glyph horiz-adv-x="526" />
<glyph unicode="&#xfb01;" horiz-adv-x="1124" d="M27 801v188h163v55q0 166 88.5 254t225.5 88q104 0 172 -38l-47 -160q-33 23 -86 22q-63 0 -100 -41t-37 -125v-55h200v-188h-200v-801h-216v801h-163zM744 1243q0 55 40 94t93 39q55 0 94 -39t39 -94t-39 -94t-94 -39q-53 0 -93 39t-40 94zM770 0v989h215v-989h-215z " />
<glyph unicode="&#xfb02;" horiz-adv-x="1124" d="M27 801v188h163v55q0 166 88.5 254t225.5 88q104 0 172 -38l-47 -160q-33 23 -86 22q-63 0 -100 -41t-37 -125v-55h200v-188h-200v-801h-216v801h-163zM770 0v1366h215v-1366h-215z" />
<glyph unicode="&#xfb03;" horiz-adv-x="1757" d="M27 801v188h163v55q0 162 86 252t228 90q66 0 128 -19t109 -67l-84 -133q-23 20 -50 31.5t-64 11.5q-63 0 -100 -41t-37 -125v-55h200v-188h-200v-801h-216v801h-163zM658 801v188h163v55q0 166 88.5 254t225.5 88q104 0 172 -38l-47 -160q-33 23 -86 22q-63 0 -100 -41 t-37 -125v-55h200v-188h-200v-801h-216v801h-163zM1377 1243q0 55 40 94t93 39q55 0 94 -39t39 -94t-39 -94t-94 -39q-53 0 -93 39t-40 94zM1403 0v989h215v-989h-215z" />
<glyph unicode="&#xfb04;" horiz-adv-x="1757" d="M27 801v188h163v55q0 162 86 252t228 90q66 0 128 -19t109 -67l-84 -133q-23 20 -50 31.5t-64 11.5q-63 0 -100 -41t-37 -125v-55h200v-188h-200v-801h-216v801h-163zM658 801v188h163v55q0 166 88.5 254t225.5 88q104 0 172 -38l-47 -160q-33 23 -86 22q-63 0 -100 -41 t-37 -125v-55h200v-188h-200v-801h-216v801h-163zM1403 0v1366h215v-1366h-215z" />
<glyph horiz-adv-x="0" />
<glyph horiz-adv-x="0" />
<glyph unicode="&#xd;" horiz-adv-x="0" />
<glyph unicode=" "  horiz-adv-x="526" />
<glyph unicode="&#x09;" horiz-adv-x="526" />
<glyph unicode="&#xa0;" horiz-adv-x="526" />
<glyph unicode="!" horiz-adv-x="501" d="M109 121q0 59 40.5 101t100.5 42q59 0 101 -42t42 -101q0 -57 -42 -99t-101 -42t-100 41.5t-41 99.5zM119 1366h262l-37 -948h-186z" />
<glyph unicode="&#x22;" horiz-adv-x="776" d="M98 1266q0 49 35 84.5t86 35.5q49 0 85 -35.5t36 -84.5q0 -6 -3 -30t-8 -57.5t-12.5 -74.5t-13.5 -84q-16 -98 -35 -219h-98q-20 121 -37 219q-6 43 -13 84t-11.5 74.5t-7.5 57.5t-3 30zM438 1266q0 49 35 84.5t86 35.5q49 0 84 -35.5t35 -84.5q0 -6 -3 -30t-8 -57.5 t-12.5 -74.5t-13.5 -84q-16 -98 -35 -219h-96q-20 121 -37 219q-6 43 -13 84t-11.5 74.5t-7.5 57.5t-3 30z" />
<glyph unicode="#" horiz-adv-x="1241" d="M39 356l45 142h209l121 368h-209l43 140h215l119 360h163l-118 -360h207l118 360h164l-121 -360h207l-41 -140h-213l-123 -368h215l-43 -142h-219l-119 -356h-163l120 356h-208l-119 -356h-164l119 356h-205zM457 498h205l122 368h-206z" />
<glyph unicode="$" horiz-adv-x="1239" d="M72 193l133 184q59 -63 145 -114.5t199 -67.5v395q-80 20 -158 47t-139.5 71t-99 111.5t-37.5 167.5q0 78 30.5 146.5t87 121t137.5 86t179 41.5v191h164v-193q248 -27 411 -184l-137 -178q-59 57 -129 92t-145 51v-352q80 -23 158.5 -50.5t142 -73.5t102.5 -115.5 t39 -172.5q0 -78 -25.5 -149.5t-80 -128t-138.5 -93t-198 -46.5v-185h-164v185q-160 12 -278.5 68t-198.5 145zM360 1004q0 -59 53.5 -94.5t135.5 -57.5v319q-88 -10 -138.5 -54.5t-50.5 -112.5zM713 193q106 16 152 69.5t46 112.5q0 70 -56 107.5t-142 64.5v-354z" />
<glyph unicode="%" horiz-adv-x="1527" d="M57 1044q0 72 24.5 134.5t69 108.5t106.5 72.5t138 26.5t139.5 -26.5t108.5 -72.5t69.5 -108.5t24.5 -134.5t-24.5 -133t-69.5 -106t-108.5 -70.5t-139.5 -25.5t-138 25.5t-106.5 70.5t-69 106.5t-24.5 132.5zM215 1044q0 -88 51 -144t129 -56q80 0 131.5 56t51.5 144 q0 92 -51.5 148.5t-131.5 56.5q-78 0 -129 -56t-51 -149zM264 0l873 1366h137l-875 -1366h-135zM793 311q0 72 24.5 134.5t68.5 108.5t106.5 72.5t137.5 26.5q76 0 138.5 -26.5t107.5 -72.5t69.5 -108.5t24.5 -134.5t-24.5 -133t-69.5 -106t-107.5 -71t-138.5 -26t-138 26 t-106 71t-68.5 106.5t-24.5 132.5zM950 311q0 -90 50 -145t130 -55t131.5 55t51.5 145q0 92 -51.5 148.5t-131.5 56.5t-130 -56.5t-50 -148.5z" />
<glyph unicode="&#x26;" horiz-adv-x="1318" d="M59 365q0 78 25 138t65.5 108t94 85t112.5 68q-43 78 -69.5 152.5t-26.5 146.5q0 70 27.5 129t78 102t118 67.5t147.5 24.5q70 0 131 -18t107 -54t73 -88t27 -120q0 -78 -30 -135.5t-78 -101.5t-109.5 -77.5t-124.5 -64.5q35 -47 70.5 -90t64.5 -78q35 -41 67.5 -81 t67.5 -77q47 74 82 150t53 135l176 -80q-37 -82 -84 -170t-106 -168q61 -66 126.5 -131t139.5 -137h-280q-25 23 -55.5 53.5l-65.5 65.5q-78 -66 -172.5 -105t-210.5 -39q-92 0 -172 25t-139.5 73t-94.5 120.5t-35 171.5zM289 383q0 -55 19.5 -99t52 -75t75.5 -46.5 t90 -15.5q66 0 125.5 27t110.5 70q-51 55 -95 104t-73 84q-37 45 -76 94t-76 103q-68 -45 -110.5 -102.5t-42.5 -143.5zM477 1059q0 -47 18.5 -100.5t49.5 -106.5q49 23 91 47.5t73.5 54t50 64.5t18.5 78q0 63 -39 97t-98 34q-70 0 -117 -47t-47 -121z" />
<glyph unicode="'" horiz-adv-x="438" d="M98 1266q0 49 35 84.5t86 35.5q49 0 85 -35.5t36 -84.5q0 -6 -3 -30t-8 -57.5t-12.5 -74.5t-13.5 -84q-16 -98 -35 -219h-98q-20 121 -37 219q-6 43 -13 84t-11.5 74.5t-7.5 57.5t-3 30z" />
<glyph unicode="(" horiz-adv-x="565" d="M86 498q0 123 21.5 246.5t61.5 240.5t97.5 222.5t128.5 195.5l133 -100q-51 -96 -90 -188.5t-65.5 -189t-40 -202t-13.5 -225.5q0 -121 13.5 -226.5t40 -202t65.5 -188.5t90 -186l-133 -103q-72 88 -129 195t-97 223.5t-61.5 240.5t-21.5 247z" />
<glyph unicode=")" horiz-adv-x="565" d="M35 -305q51 94 91 186t66.5 188.5t40 202t13.5 226.5t-13.5 226t-40 201.5t-66.5 188.5t-91 189l133 100q74 -90 131 -195.5t97 -222.5t61.5 -240.5t21.5 -246.5t-21.5 -247t-61.5 -240.5t-97 -223t-131 -195.5z" />
<glyph unicode="*" horiz-adv-x="708" d="M59 973l203 104l-203 105l56 98l192 -123l-10 229h115l-13 -229l193 123l57 -98l-203 -105l203 -104l-57 -99l-193 125l13 -229h-115l10 229l-192 -125z" />
<glyph unicode="+" horiz-adv-x="1028" d="M59 621v139h379v409h152v-409h379v-139h-379v-424h-152v424h-379z" />
<glyph unicode="," horiz-adv-x="501" d="M106 123q0 59 41 100t99 41q63 0 111.5 -48t48.5 -138q0 -106 -53.5 -198.5t-139.5 -151.5l-96 79q25 14 49 37t43.5 48.5t34 53t20.5 54.5q-4 -2 -14 -4t-21 -2q-53 0 -88 36t-35 93z" />
<glyph unicode="-" horiz-adv-x="614" d="M61 403v185h492v-185h-492z" />
<glyph unicode="." horiz-adv-x="501" d="M106 121q0 59 42 101t102 42q59 0 101 -42t42 -101t-42 -101.5t-101 -42.5t-101.5 42t-42.5 102z" />
<glyph unicode="/" horiz-adv-x="645" d="M0 -41l485 1448h160l-485 -1448h-160z" />
<glyph unicode="0" horiz-adv-x="1261" d="M84 682q0 129 31.5 255t98.5 226.5t170 161.5t247 61q143 0 246.5 -61t170 -161.5t98.5 -226.5t32 -255t-32 -256t-98.5 -226.5t-170 -162t-246.5 -62.5t-246.5 62.5t-170.5 162t-98.5 226.5t-31.5 256zM328 682q0 -98 16 -187t52 -157t93.5 -109t141.5 -41t141 41 t93 109t52.5 157t16.5 187t-16.5 187t-52.5 157t-93 108t-141 40t-141.5 -40t-93.5 -108t-52 -157t-16 -187z" />
<glyph unicode="1" horiz-adv-x="778" d="M31 969l393 397h209v-1366h-240v1055l-223 -232z" />
<glyph unicode="2" horiz-adv-x="1218" d="M84 1167q92 111 226 165t278 54q98 0 188 -27.5t159 -80.5t108.5 -132t39.5 -181q0 -94 -42 -185.5t-119.5 -182.5t-188 -186.5t-248.5 -199.5h607v-211h-990v188q199 150 339.5 262.5t228.5 202.5t129 164t41 148q0 53 -21.5 93t-56.5 65.5t-79 38t-91 12.5 q-121 0 -212 -45.5t-157 -118.5z" />
<glyph unicode="3" horiz-adv-x="1175" d="M49 197l129 157q66 -78 167 -122t212 -44q135 0 210 56.5t75 152.5q0 102 -78 147.5t-225 45.5h-92.5t-65.5 -2v215q18 -2 67.5 -2h90.5q59 0 110 10t89 32.5t59.5 56.5t21.5 81t-21.5 83t-59.5 60.5t-88 37t-107 12.5q-104 0 -191.5 -39t-161.5 -113l-122 149 q78 92 201.5 153.5t295.5 61.5q111 0 202 -25.5t155.5 -72.5t100.5 -115.5t36 -154.5q0 -68 -26.5 -122t-68.5 -94t-95.5 -64.5t-106.5 -32.5q49 -4 105.5 -27t103.5 -65t77.5 -101t30.5 -139q0 -86 -35.5 -160t-102.5 -126t-162 -82t-214 -30q-184 0 -315 64.5t-201 157.5z " />
<glyph unicode="4" horiz-adv-x="1187" d="M57 309v193l561 864h330v-846h182v-211h-182v-309h-239v309h-652zM293 520h416v631z" />
<glyph unicode="5" horiz-adv-x="1228" d="M115 186l137 164q70 -78 161 -120t208 -42q63 0 115 18.5t89 51.5t56.5 77t19.5 93q0 111 -73.5 177.5t-200.5 66.5q-88 0 -161 -29t-138 -90l-170 49v764h895v-211h-656v-395q49 49 130 84t180 35q86 0 164.5 -30t139 -86t96.5 -138t36 -187q0 -106 -38 -192 t-107.5 -145.5t-164.5 -92.5t-210 -33q-178 0 -301 56.5t-207 154.5z" />
<glyph unicode="6" horiz-adv-x="1230" d="M84 680q0 147 39 276t114.5 224.5t188.5 150.5t260 55q129 0 226.5 -41.5t166.5 -109.5l-112 -182q-53 57 -118 89t-163 32q-86 0 -152.5 -37t-112.5 -98.5t-70.5 -143.5t-24.5 -172v-19.5t2 -19.5q23 35 60.5 68.5t84.5 61.5t103.5 44t117.5 16q92 0 175 -27.5 t145.5 -82.5t99.5 -138t37 -192q0 -96 -36 -179t-101.5 -145.5t-158.5 -98.5t-208 -36q-152 0 -258 56.5t-174 154t-99.5 225.5t-31.5 269zM330 508q6 -55 24.5 -112.5t54 -103.5t91 -75t135.5 -29q68 0 119 21.5t85.5 55.5t52 77t17.5 84q0 63 -22.5 109.5t-61.5 76t-90 44 t-106 14.5q-88 0 -167 -44t-132 -118z" />
<glyph unicode="7" horiz-adv-x="1089" d="M55 1155v211h985v-166l-530 -1200h-262l516 1155h-709z" />
<glyph unicode="8" horiz-adv-x="1218" d="M86 350q0 66 24.5 121t66.5 100t98.5 79t117.5 55q-57 18 -109.5 46.5t-91 68.5t-61 91.5t-22.5 116.5q0 94 44 161.5t115.5 112t160.5 64.5t181 20q90 0 179.5 -20t161 -64.5t116.5 -112t45 -161.5q0 -66 -23.5 -117t-62.5 -91t-91 -68.5t-110 -46.5q61 -20 117.5 -54.5 t98.5 -79.5t67 -100t25 -121q0 -92 -42 -161.5t-115 -116.5t-167.5 -72t-198.5 -25t-199.5 24t-168 72t-114.5 117.5t-42 161.5zM328 381q0 -45 22.5 -81t60.5 -60.5t89 -38t110 -13.5q57 0 107.5 13.5t89.5 38t61.5 60.5t22.5 81q0 53 -32 92t-77 64.5t-93 40t-79 18.5 q-33 -4 -81 -18.5t-93 -40t-76.5 -64.5t-31.5 -92zM350 991q0 -49 29 -83t69.5 -56.5t85.5 -34.5t76 -18q31 6 76 18t85 34.5t68.5 56.5t28.5 83q0 43 -19.5 77t-54 57.5t-81.5 36t-103 12.5q-113 0 -186.5 -48.5t-73.5 -134.5z" />
<glyph unicode="9" horiz-adv-x="1230" d="M78 930q0 94 36 178t101.5 146.5t158.5 98.5t208 36q150 0 257 -57.5t174.5 -154t99.5 -224.5t32 -271q0 -147 -39 -276.5t-115 -224.5t-188.5 -149.5t-259.5 -54.5q-127 0 -224.5 41t-166.5 111l110 180q53 -55 117.5 -87t163.5 -32q92 0 160.5 39t112.5 101.5 t65.5 143.5t21.5 165v41q-25 -35 -62.5 -68.5t-84.5 -61.5t-103.5 -45.5t-115.5 -17.5q-92 0 -175 29t-146.5 84t-100.5 138t-37 192zM322 938q0 -63 22.5 -109.5t61 -76t89 -44t105.5 -14.5q88 0 168 43t131 117q-4 55 -22.5 112.5t-55.5 103.5t-92 76t-135 30 q-68 0 -118 -21.5t-85 -56.5t-52 -77t-17 -83z" />
<glyph unicode=":" horiz-adv-x="501" d="M106 121q0 59 42 101t102 42q59 0 101 -42t42 -101t-42 -101.5t-101 -42.5t-101.5 42t-42.5 102zM106 860q0 59 42 101.5t102 42.5q59 0 101 -42t42 -102q0 -59 -42 -101t-101 -42t-101.5 42t-42.5 101z" />
<glyph unicode=";" horiz-adv-x="501" d="M106 129q0 59 41 100t99 41q63 0 111.5 -48t48.5 -138q0 -106 -53.5 -198.5t-139.5 -151.5l-96 80q25 14 49 36.5t43.5 48t34 53.5t20.5 54q-4 -2 -14 -4t-21 -2q-53 0 -88 36t-35 93zM106 860q0 59 42 101.5t102 42.5q59 0 101 -42t42 -102q0 -57 -42 -100t-101 -43 t-101.5 43t-42.5 100z" />
<glyph unicode="&#x3c;" horiz-adv-x="1028" d="M59 608v154l910 426v-166l-748 -338l748 -336v-164z" />
<glyph unicode="=" horiz-adv-x="1028" d="M59 420v137h910v-137h-910zM59 809v139h910v-139h-910z" />
<glyph unicode="&#x3e;" horiz-adv-x="1028" d="M59 184v164l746 336l-746 338v166l910 -426v-154z" />
<glyph unicode="?" horiz-adv-x="937" d="M27 1184q78 96 192.5 149t253.5 53q96 0 173 -24.5t131 -67.5t83 -101t29 -128q0 -76 -27.5 -130t-67.5 -96t-88.5 -75t-88 -64.5t-67.5 -66.5t-28 -80q0 -25 12.5 -50.5t32.5 -41.5l-180 -60q-74 70 -74 174q0 61 24.5 107.5t61.5 82.5t79 64.5t79 58.5t61.5 62.5 t24.5 75.5q0 59 -47 103.5t-147 44.5q-94 0 -163 -39t-122 -105zM317 121q0 59 42 101t102 42q59 0 101 -42t42 -101t-42 -101.5t-101 -42.5t-101.5 42t-42.5 102z" />
<glyph unicode="@" horiz-adv-x="1603" d="M72 500q0 164 67.5 310t179 257t259 175.5t307.5 64.5q145 0 264 -50.5t204 -137.5t131 -202.5t46 -246.5q0 -125 -36 -218.5t-91 -154.5t-123 -92t-133 -31q-92 0 -139 48t-56 110l-2 12q-53 -76 -135 -123t-172 -47q-74 0 -132 25.5t-99 70.5t-62.5 107.5t-21.5 136.5 q0 104 40 196.5t105.5 161t150.5 108.5t175 40q96 0 161.5 -42t96.5 -104l24 115h193l-111 -522q-2 -10 -3 -23.5t-1 -23.5q0 -49 24.5 -73.5t59.5 -24.5q31 0 67 18t66.5 60t51 107.5t20.5 162.5q0 123 -41 226t-115.5 178t-180 116t-234.5 41q-147 0 -279.5 -59.5 t-232 -160t-159 -232.5t-59.5 -275q0 -123 44.5 -227.5t121 -181.5t183 -121t233.5 -44q106 0 199.5 30t177.5 83l41 -57q-96 -61 -203.5 -95t-222.5 -34q-139 0 -258 49t-206 136t-136 205t-49 253zM526 528q0 -88 49.5 -144t137.5 -56q45 0 85 14t71.5 36.5t58 50.5 t45.5 54l55 258q-8 20 -23.5 42t-39 40.5t-54 30.5t-69.5 12q-68 0 -125.5 -28.5t-100.5 -76.5t-66.5 -108.5t-23.5 -124.5z" />
<glyph unicode="A" d="M2 0l537 1366h299l536 -1366h-272l-101 262h-626l-101 -262h-272zM442 473h492l-246 651z" />
<glyph unicode="B" horiz-adv-x="1327" d="M145 0v1366h672q94 0 167 -27.5t122 -74.5t74.5 -110.5t25.5 -135.5q0 -66 -19.5 -119t-52 -93t-75.5 -65.5t-90 -35.5q55 -8 103 -38t84 -75t56.5 -102.5t20.5 -120.5q0 -80 -25.5 -147.5t-77 -117t-125 -77t-169.5 -27.5h-691zM385 211h393q98 0 153.5 50t55.5 140 q0 78 -52 133.5t-157 55.5h-393v-379zM385 801h383q92 0 142.5 49t50.5 127t-50.5 128t-142.5 50h-383v-354z" />
<glyph unicode="C" horiz-adv-x="1396" d="M84 682q0 158 55.5 288t151.5 223t227 144.5t283 51.5q104 0 188 -25t151.5 -68t119 -98t90.5 -117l-205 -104q-49 86 -141.5 142.5t-202.5 56.5q-102 0 -188.5 -37t-149 -102.5t-98 -157t-35.5 -197.5q0 -109 35.5 -199t98 -155.5t148.5 -102.5t189 -37q111 0 203 56.5 t141 142.5l205 -104q-39 -61 -91.5 -116.5t-119 -98.5t-150.5 -68t-188 -25q-152 0 -283 51.5t-227 144.5t-151.5 223t-55.5 288z" />
<glyph unicode="D" horiz-adv-x="1454" d="M145 0v1366h508q160 0 292 -50t225.5 -141.5t145.5 -217.5t52 -275q0 -152 -52 -276.5t-145.5 -215t-225.5 -140.5t-292 -50h-508zM385 211h268q111 0 199 37t147.5 101.5t91 150.5t31.5 182q0 98 -30.5 185t-90 150.5t-146.5 100.5t-202 37h-268v-944z" />
<glyph unicode="E" horiz-adv-x="1181" d="M145 0v1366h936v-211h-696v-354h682v-211h-682v-379h696v-211h-936z" />
<glyph unicode="F" horiz-adv-x="1150" d="M145 0v1366h936v-211h-696v-354h682v-211h-682v-590h-240z" />
<glyph unicode="G" horiz-adv-x="1468" d="M84 682q0 160 56.5 291t153.5 223t228 142.5t279 50.5q100 0 183 -23t150.5 -60.5t122 -90t95.5 -111.5l-197 -111q-53 78 -145 130.5t-209 52.5q-102 0 -188.5 -37t-149 -102.5t-98 -157t-35.5 -197.5q0 -109 35.5 -199t98 -156.5t148.5 -103.5t189 -37q104 0 190 40 t133 83v213h-407v211h647v-512q-102 -113 -242.5 -180.5t-320.5 -67.5q-147 0 -278.5 50.5t-228.5 143.5t-153.5 224t-56.5 291z" />
<glyph unicode="H" horiz-adv-x="1480" d="M145 0v1366h240v-559h711v559h239v-1366h-239v596h-711v-596h-240z" />
<glyph unicode="I" horiz-adv-x="530" d="M145 0v1366h240v-1366h-240z" />
<glyph unicode="J" horiz-adv-x="985" d="M16 119l111 182q41 -45 98.5 -79t134.5 -34q111 0 175.5 68t64.5 180v930h240v-934q0 -117 -35 -203t-96.5 -142t-146.5 -84t-183 -28q-106 0 -198.5 33t-164.5 111z" />
<glyph unicode="K" horiz-adv-x="1271" d="M145 0v1366h240v-651l535 651h297l-555 -645l595 -721h-294l-459 575l-119 -139v-436h-240z" />
<glyph unicode="L" horiz-adv-x="1058" d="M145 0v1366h240v-1155h602v-211h-842z" />
<glyph unicode="M" horiz-adv-x="1710" d="M145 0v1366h338l371 -899l373 899h338v-1366h-240v1014l-420 -1014h-102l-418 1014v-1014h-240z" />
<glyph unicode="N" horiz-adv-x="1474" d="M145 0v1366h246l699 -948v948h239v-1366h-231l-713 975v-975h-240z" />
<glyph unicode="O" horiz-adv-x="1566" d="M84 682q0 154 51 283t144.5 223t221.5 147.5t281 53.5q154 0 282 -53.5t221 -147.5t144.5 -223t51.5 -283t-51.5 -283t-144.5 -223t-221 -147.5t-282 -53.5t-281.5 53.5t-221 147.5t-144.5 223t-51 283zM330 682q0 -104 31.5 -195.5t91 -157t142.5 -103.5t187 -38 q102 0 186.5 38t143.5 103.5t91 157t32 195.5q0 106 -32 196.5t-91 156t-143 103.5t-187 38q-104 0 -187 -38t-142.5 -103.5t-91 -156t-31.5 -196.5z" />
<glyph unicode="P" horiz-adv-x="1245" d="M145 0v1366h600q106 0 190.5 -35t141 -93t86 -136t29.5 -164t-29.5 -164t-87 -136t-140.5 -93t-190 -35h-360v-510h-240zM385 721h328q102 0 167.5 59.5t65.5 157.5t-65.5 157.5t-167.5 59.5h-328v-434z" />
<glyph unicode="Q" horiz-adv-x="1566" d="M84 682q0 154 51 283t144.5 223t221.5 147.5t281 53.5q154 0 282 -53.5t221 -147.5t144.5 -223t51.5 -283q0 -147 -48.5 -272t-134.5 -220l113 -127l-166 -139l-119 133q-151 -82 -344 -82q-154 0 -281.5 53.5t-221 147.5t-144.5 223t-51 283zM330 682 q0 -104 31.5 -195.5t91 -157t142.5 -103.5t187 -38t193 41l-168 193l166 137l168 -192q94 129 94 315q0 106 -32 196.5t-91 156t-143 103.5t-187 38q-104 0 -187 -38t-142.5 -103.5t-91 -156t-31.5 -196.5z" />
<glyph unicode="R" horiz-adv-x="1286" d="M145 0v1366h600q100 0 183.5 -31.5t141.5 -88t90 -135.5t32 -173q0 -92 -27.5 -161.5t-72.5 -120t-103.5 -80t-120.5 -39.5l334 -537h-276l-303 510h-238v-510h-240zM385 721h328q102 0 167.5 59.5t65.5 157.5t-65.5 157.5t-167.5 59.5h-328v-434z" />
<glyph unicode="S" horiz-adv-x="1216" d="M57 193l133 184q72 -76 180.5 -132.5t252.5 -56.5q74 0 126 16.5t84.5 43t48 59.5t15.5 68q0 53 -34 88t-90 58.5t-128 41t-146.5 38t-146 48t-128 71.5t-90.5 108.5t-34 158.5q0 84 36 157t101.5 127t156.5 84.5t204 30.5q160 0 288 -49t224 -141l-137 -178 q-80 80 -183.5 118t-211.5 38q-106 0 -169 -46.5t-63 -123.5q0 -63 58.5 -97.5t147.5 -60t191.5 -51t191.5 -71.5t147.5 -123t58.5 -204q0 -86 -31 -161.5t-95.5 -134t-165 -92.5t-237.5 -34q-190 0 -326 59.5t-229 158.5z" />
<glyph unicode="T" horiz-adv-x="1181" d="M57 1155v211h1067v-211h-413v-1155h-240v1155h-414z" />
<glyph unicode="U" horiz-adv-x="1472" d="M145 539v827h242v-819q0 -164 88 -261.5t262 -97.5q172 0 260 97.5t88 261.5v819h242v-825q0 -127 -37 -231.5t-110.5 -178.5t-184.5 -115t-258 -41q-150 0 -260 41t-184 115t-111 177.5t-37 230.5z" />
<glyph unicode="V" d="M2 1366h272l414 -1106l414 1106h272l-536 -1366h-299z" />
<glyph unicode="W" horiz-adv-x="1849" d="M12 1366h269l266 -1053l282 1053h191l283 -1053l264 1053h268l-389 -1366h-256l-266 1008l-265 -1008h-256z" />
<glyph unicode="X" horiz-adv-x="1353" d="M6 0l512 700l-481 666h287l352 -502l350 502h289l-479 -664l510 -702h-287l-383 535l-383 -535h-287z" />
<glyph unicode="Y" horiz-adv-x="1304" d="M2 1366h274l377 -586l373 586h274l-528 -799v-567h-240v567z" />
<glyph unicode="Z" horiz-adv-x="1206" d="M90 0v195l698 960h-698v211h1010v-195l-699 -960h713v-211h-1024z" />
<glyph unicode="[" horiz-adv-x="540" d="M90 -389v1778h416v-148h-258v-1483h258v-147h-416z" />
<glyph unicode="\" horiz-adv-x="645" d="M0 1407h160l485 -1448h-160z" />
<glyph unicode="]" horiz-adv-x="540" d="M35 -242h258v1483h-258v148h416v-1778h-416v147z" />
<glyph unicode="^" horiz-adv-x="894" d="M39 682l330 684h159l328 -684h-164l-246 535l-243 -535h-164z" />
<glyph unicode="_" horiz-adv-x="1155" d="M-6 -82h1167v-147h-1167v147z" />
<glyph unicode="`" horiz-adv-x="491" d="M0 1434h205l287 -295h-154z" />
<glyph unicode="a" horiz-adv-x="1097" d="M80 303q0 86 30.5 146.5t80 99.5t110.5 57.5t123 18.5q100 0 183 -32t136 -95v147q0 86 -63.5 135t-167.5 49q-166 0 -293 -124l-88 149q86 82 191.5 121t224.5 39q82 0 156.5 -18.5t131 -60.5t90 -110.5t33.5 -169.5v-655h-215v106q-55 -63 -138 -97t-181 -34 q-61 0 -122.5 20.5t-111 61.5t-80 102.5t-30.5 143.5zM297 299q0 -80 59.5 -128t151.5 -48q72 0 135.5 25.5t99.5 76.5v150q-37 51 -100 76.5t-135 25.5q-92 0 -151.5 -48t-59.5 -130z" />
<glyph unicode="b" horiz-adv-x="1189" d="M139 0v1366h215v-514q59 78 141.5 120t176.5 42t175 -37t139 -104.5t91 -164t33 -214.5q0 -123 -33 -219.5t-91 -163t-139 -101.5t-175 -35q-98 0 -179 43t-139 117v-135h-215zM354 297q35 -55 106.5 -93t147.5 -38q63 0 115.5 24.5t89.5 67.5t56.5 103.5t19.5 132.5 t-19.5 132t-56.5 104t-89 68.5t-116 24.5q-37 0 -74.5 -11t-71.5 -29.5t-61.5 -43t-46.5 -51.5v-391z" />
<glyph unicode="c" horiz-adv-x="1017" d="M78 496q0 113 38 207t105.5 163.5t161.5 108.5t207 39q145 0 235 -52.5t144 -123.5l-142 -131q-83 116 -225 116h-2q-68 0 -123 -24.5t-94 -67.5t-60.5 -103.5t-21.5 -131.5q0 -72 21.5 -132.5t60.5 -104.5t94 -68.5t123 -24.5q141 0 227 117l142 -131 q-53 -72 -143.5 -124.5t-235.5 -52.5q-113 0 -207 39t-161.5 109t-105.5 165t-38 208z" />
<glyph unicode="d" horiz-adv-x="1189" d="M78 494q0 119 32.5 215t91 163.5t139.5 104.5t177 37q92 0 175 -42t143 -120v514h215v-1366h-215v135q-57 -74 -139.5 -117t-178.5 -43t-176 35t-139.5 101.5t-92 163t-32.5 219.5zM301 494q0 -72 19.5 -132.5t56.5 -103.5t88.5 -67.5t114.5 -24.5q78 0 148.5 38 t107.5 93v393q-37 55 -108 94t-148 39q-129 0 -204 -92t-75 -237z" />
<glyph unicode="e" horiz-adv-x="1140" d="M78 496q0 106 37 201.5t103.5 165t158.5 110.5t203 41t200.5 -40t153 -113t98.5 -171t35 -215v-51h-764q6 -55 29.5 -105.5t63.5 -87t96.5 -58t125.5 -21.5q72 0 150 27.5t131 80.5l98 -141q-74 -72 -178 -108t-223 -36q-111 0 -206 37t-164.5 105.5t-108.5 165 t-39 213.5zM301 575h557q-2 43 -18.5 90.5t-50 85t-85 62.5t-124.5 25q-70 0 -120 -23.5t-84 -61.5t-52.5 -85t-22.5 -93z" />
<glyph unicode="f" horiz-adv-x="630" d="M27 801v188h163v55q0 162 86 252t228 90q66 0 128 -19t109 -67l-84 -133q-23 20 -50 31.5t-64 11.5q-63 0 -100 -41t-37 -125v-55h200v-188h-200v-801h-216v801h-163z" />
<glyph unicode="g" horiz-adv-x="1187" d="M78 506q0 119 32.5 214t91 159.5t138.5 99.5t176 35q94 0 176 -42t142 -120v137h215v-938q0 -133 -45.5 -221t-118 -139t-162.5 -71.5t-182 -20.5q-127 0 -224.5 31.5t-189.5 115.5l100 156q59 -70 137 -98.5t177 -28.5q53 0 105 13t94 45t68 83t26 127v119 q-57 -74 -138.5 -119t-179.5 -45q-94 0 -175 34t-139.5 98.5t-91 158.5t-32.5 217zM301 506q0 -143 75 -230.5t204 -87.5q37 0 74.5 10.5t71.5 29t61.5 42t46.5 52.5v368q-18 27 -46 51.5t-62 43t-72 28.5t-74 10q-129 0 -204 -87t-75 -230z" />
<glyph unicode="h" horiz-adv-x="1163" d="M139 0v1366h215v-512q25 29 61 57.5t81 51t97 37t112 14.5q160 0 239.5 -80t79.5 -234v-700h-215v623q0 115 -55.5 157.5t-145.5 42.5q-82 0 -148.5 -41t-105.5 -92v-690h-215z" />
<glyph unicode="i" horiz-adv-x="493" d="M113 1243q0 55 40 94t93 39q55 0 94 -39t39 -94t-39 -94t-94 -39q-53 0 -93 39t-40 94zM139 0v989h215v-989h-215z" />
<glyph unicode="j" horiz-adv-x="493" d="M-207 -330l64 160q29 -25 59.5 -40t77.5 -15q63 0 104 40t41 128v1046h215v-1046q0 -160 -81.5 -252t-245.5 -92q-86 0 -134.5 17t-99.5 54zM113 1243q0 55 40 94t93 39q55 0 94 -39t39 -94t-39 -94t-94 -39q-53 0 -93 39t-40 94z" />
<glyph unicode="k" horiz-adv-x="1077" d="M139 0v1366h215v-854l437 477h266l-412 -448l420 -541h-270l-303 408l-138 -142v-266h-215z" />
<glyph unicode="l" horiz-adv-x="493" d="M139 0v1366h215v-1366h-215z" />
<glyph unicode="m" horiz-adv-x="1705" d="M139 0v989h215v-135q14 23 46 50.5t74 52t94.5 41t107.5 16.5q111 0 178.5 -50.5t91.5 -132.5q20 33 55 66t79 59.5t95.5 42t106.5 15.5q137 0 211 -74t74 -225v-715h-215v645q0 80 -38 129t-124 49q-72 0 -134.5 -42t-94.5 -89v-692h-216v645q0 80 -37.5 129t-125.5 49 q-72 0 -132.5 -42t-95.5 -91v-690h-215z" />
<glyph unicode="n" horiz-adv-x="1161" d="M139 0v989h215v-135q25 29 61 57.5t80 51t96 37t111 14.5q160 0 240 -82t80 -236v-696h-215v618q0 115 -54.5 160t-144.5 45q-84 0 -150.5 -41t-103.5 -92v-690h-215z" />
<glyph unicode="o" horiz-adv-x="1173" d="M78 496q0 106 34.5 200.5t101.5 165t161 111.5t211 41q119 0 213 -41t160.5 -111.5t101.5 -165t35 -200.5t-35 -201.5t-101.5 -166.5t-160.5 -112t-213 -41q-117 0 -211 41t-161 112t-101.5 166t-34.5 202zM301 496q0 -66 18.5 -126.5t55.5 -105.5t90 -71.5t121 -26.5 q70 0 123 26.5t90 71.5t55 105.5t18 126.5t-18 125t-55 104t-90.5 71.5t-122.5 26.5q-68 0 -121 -26.5t-90 -71.5t-55.5 -104.5t-18.5 -124.5z" />
<glyph unicode="p" horiz-adv-x="1183" d="M139 -377v1366h215v-135q55 74 137 117t181 43q96 0 176 -35t138 -101.5t91 -163t33 -218.5q0 -123 -33 -219.5t-91 -163t-138 -102.5t-176 -36q-94 0 -176 41t-142 121v-514h-215zM354 299q18 -27 46 -51.5t62 -43t71.5 -28.5t74.5 -10q129 0 204 92t75 238 q0 72 -19.5 132t-56.5 103t-88 67.5t-115 24.5q-37 0 -74.5 -10t-71.5 -28.5t-61.5 -43t-46.5 -51.5v-391z" />
<glyph unicode="q" horiz-adv-x="1183" d="M74 496q0 123 32.5 219t91 162.5t138.5 101.5t176 35q98 0 180 -43t137 -117v135h215v-1366h-215v514q-59 -80 -141 -121t-176 -41q-96 0 -176 36t-138.5 102.5t-91 163t-32.5 219.5zM297 496q0 -145 74.5 -237.5t203.5 -92.5q37 0 75 10t72 28.5t61.5 43t45.5 51.5v391 q-18 27 -45.5 51.5t-61.5 43t-72 28.5t-75 10q-63 0 -114 -24.5t-88 -67.5t-56.5 -103.5t-19.5 -131.5z" />
<glyph unicode="r" horiz-adv-x="710" d="M139 0v989h215v-145q55 72 139.5 120t182.5 48v-213q-29 6 -68 6q-35 0 -71.5 -10.5t-72.5 -28.5t-64.5 -42t-45.5 -50v-674h-215z" />
<glyph unicode="s" horiz-adv-x="966" d="M53 129l99 156q27 -27 63.5 -52.5t81.5 -45t93 -31t97 -11.5q98 0 146.5 37t48.5 97q0 49 -44 73.5t-110.5 41t-144.5 32.5t-144.5 49t-110.5 88t-44 150q0 61 25.5 115.5t74.5 95.5t122 65.5t167 24.5q127 0 222.5 -40t162.5 -100l-90 -151q-45 51 -123 85t-170 34 q-86 0 -135 -34t-49 -87q0 -45 44 -66.5t110.5 -38t144.5 -34t144.5 -51t110.5 -92t44 -156.5q0 -66 -26.5 -122.5t-79 -97t-129.5 -64.5t-177 -24q-127 0 -236.5 39t-187.5 115z" />
<glyph unicode="t" horiz-adv-x="653" d="M18 801v188h164v271h215v-271h201v-188h-201v-518q0 -51 23.5 -84t71.5 -33q31 0 57 10t39 25l51 -162q-29 -29 -78 -46.5t-125 -17.5q-125 0 -189.5 65.5t-64.5 188.5v572h-164z" />
<glyph unicode="u" horiz-adv-x="1161" d="M139 289v700h215v-622q0 -115 54.5 -158t144.5 -43q82 0 148.5 39t105.5 90v694h215v-989h-215v131q-53 -59 -143.5 -107.5t-206.5 -48.5q-160 0 -239 80t-79 234z" />
<glyph unicode="v" horiz-adv-x="1030" d="M-4 989h229l289 -741l289 741h231l-403 -989h-232z" />
<glyph unicode="w" horiz-adv-x="1544" d="M10 989h223l209 -719l236 719h188l236 -719l209 719h223l-307 -989h-226l-229 725l-229 -725h-226z" />
<glyph unicode="x" horiz-adv-x="1015" d="M10 0l363 508l-342 481h241l236 -336l233 336h242l-342 -481l365 -508h-242l-256 365l-258 -365h-240z" />
<glyph unicode="y" horiz-adv-x="1030" d="M-4 989h229l289 -741l289 741h231l-477 -1167q-51 -127 -137 -174t-203 -49q-23 0 -60.5 4t-60.5 10l33 192q16 -8 40 -12t42 -4q51 0 85 18.5t56 67.5l49 113z" />
<glyph unicode="z" horiz-adv-x="974" d="M94 0v162l490 639h-490v188h776v-158l-493 -645h502v-186h-785z" />
<glyph unicode="{" horiz-adv-x="565" d="M8 436v127q53 0 80 41t27 98v381q0 70 24.5 127.5t64.5 96.5t93 60.5t109 21.5h124v-148h-124q-53 0 -92.5 -43t-39.5 -115v-401q0 -66 -21.5 -113t-72.5 -69q51 -23 72.5 -70t21.5 -113v-401q0 -70 39 -114t93 -44h124v-147h-124q-55 0 -108.5 20.5t-93.5 60.5t-64.5 95 t-24.5 127v383q0 57 -27 98t-80 41z" />
<glyph unicode="|" horiz-adv-x="438" d="M145 -41v1448h148v-1448h-148z" />
<glyph unicode="}" horiz-adv-x="565" d="M35 -242h125q53 0 92 44t39 114v401q0 66 21.5 113t72.5 70q-51 23 -72.5 69.5t-21.5 112.5v401q0 72 -39 115t-92 43h-125v148h125q55 0 108.5 -21.5t93 -60.5t64.5 -96.5t25 -127.5v-381q0 -57 26.5 -98t79.5 -41v-127q-53 0 -79.5 -41t-26.5 -98v-383q0 -72 -25 -127 t-64.5 -95t-93 -60.5t-108.5 -20.5h-125v147z" />
<glyph unicode="~" horiz-adv-x="1038" d="M53 870q8 92 25.5 181.5t50.5 158t86 111.5t135 43q66 0 107 -27.5t67.5 -69.5t42 -90.5t31.5 -90.5t35.5 -69.5t54.5 -27.5q33 0 58.5 30t42 82t27.5 119.5t18 145.5l149 -18q-8 -92 -24.5 -181.5t-49 -158t-86 -111.5t-135.5 -43q-66 0 -106.5 27.5t-67.5 68.5 t-42 90.5t-31.5 90t-36 68.5t-54.5 28t-58.5 -31t-41 -82t-28.5 -119.5t-17 -142.5z" />
<glyph unicode="&#xa1;" horiz-adv-x="501" d="M109 868q0 57 40.5 99.5t100.5 42.5q59 0 101 -42t42 -100q0 -59 -42 -101t-101 -42t-100 42t-41 101zM121 -377l37 946h186l39 -946h-262z" />
<glyph unicode="&#xa2;" horiz-adv-x="1017" d="M78 496q0 100 30.5 187t87 154.5t134.5 111.5t174 59v149h160v-147q113 -14 185.5 -62.5t119.5 -109.5l-142 -131q-63 88 -163 110v-645q100 23 163 111l142 -131q-47 -61 -120 -109.5t-185 -62.5v-185h-160v187q-96 14 -174 57t-134.5 110.5t-87 155.5t-30.5 191z M301 496q0 -117 54.5 -202t148.5 -114v629q-94 -31 -148.5 -113.5t-54.5 -199.5z" />
<glyph unicode="&#xa3;" horiz-adv-x="1097" d="M43 549v143h170q-45 57 -82 122t-37 157t41 169t107.5 131t153.5 84.5t179 30.5q158 0 273 -60t176 -179l-190 -113q-27 66 -88.5 111t-143.5 45q-51 0 -96 -15.5t-79 -45t-53.5 -70.5t-19.5 -92q0 -47 11.5 -84t30 -69t41 -61.5t44.5 -60.5h301v-143h-237q6 -29 6 -60 q0 -82 -42 -144t-101 -101q23 8 51 12t53 4q47 0 82 -11t65.5 -25.5t62.5 -26t73 -11.5q66 0 113.5 25t70.5 53l96 -190q-41 -43 -112.5 -72t-178.5 -29q-68 0 -114.5 14.5t-85.5 32t-78 32t-90 14.5q-53 0 -114.5 -23t-125.5 -57l-82 168q111 51 177.5 122.5t66.5 157.5 q0 57 -27 115h-268z" />
<glyph unicode="&#xa4;" horiz-adv-x="1253" d="M51 1130l129 127l156 -157q59 39 132 59.5t159 20.5t157.5 -20.5t130.5 -59.5l156 157l129 -129l-153 -153q88 -129 88 -293q0 -166 -88 -295l153 -149l-129 -127l-156 151q-120 -80 -288 -80q-86 0 -160 21.5t-133 60.5l-152 -153l-129 127l152 151q-41 63 -63.5 137 t-22.5 156q0 164 88 293zM336 682q0 -61 19.5 -116.5t56.5 -98.5t91 -67.5t124 -24.5t124 24.5t91 67.5t56.5 98.5t19.5 116.5t-19.5 115.5t-56.5 96.5t-91.5 66.5t-123.5 24.5q-70 0 -124 -24.5t-91 -66.5t-56.5 -96.5t-19.5 -115.5z" />
<glyph unicode="&#xa5;" horiz-adv-x="1304" d="M2 1366h274l377 -586l373 586h274l-438 -661h398v-138h-488v-188h488v-137h-488v-242h-240v242h-485v137h485v188h-485v138h393z" />
<glyph unicode="&#xa6;" horiz-adv-x="438" d="M145 -41v647h148v-647h-148zM145 760v647h148v-647h-148z" />
<glyph unicode="&#xa7;" horiz-adv-x="976" d="M57 -6l95 137q25 -27 59.5 -52.5t75.5 -46t89 -33.5t101 -13q92 0 148.5 36.5t56.5 106.5q0 55 -44 84t-110.5 48.5t-144.5 37.5t-144.5 50t-110.5 86t-44 149q0 53 18.5 95t49 74.5t69.5 54t78 34.5q-102 35 -158.5 96t-56.5 160q0 59 27.5 112.5t78 92t122 61 t161.5 22.5q147 0 238.5 -44t144.5 -97l-88 -129q-53 57 -131 87t-156 30q-86 0 -138 -36t-52 -97q0 -49 44 -75t110.5 -43t144.5 -33.5t144.5 -49.5t110.5 -89.5t44 -152.5q0 -86 -45 -153.5t-133 -108.5q78 -33 128 -90t50 -160q0 -74 -31 -132t-85 -98t-130 -60.5 t-166 -20.5q-152 0 -252 48t-168 112zM291 612q0 -41 21.5 -66.5t55 -44t77.5 -30.5t92 -22q70 29 105.5 70t35.5 102q0 39 -17.5 65.5t-45 46t-62.5 31.5t-72 22q-111 -29 -150.5 -71.5t-39.5 -102.5z" />
<glyph unicode="&#xa8;" horiz-adv-x="583" d="M-43 1245q0 49 35 84t86 35q49 0 84 -35t35 -84q0 -51 -35 -86t-84 -35q-51 0 -86 35t-35 86zM385 1245q0 49 36 84t85 35t85 -35t36 -84q0 -51 -36 -86t-85 -35t-85 35t-36 86z" />
<glyph unicode="&#xa9;" horiz-adv-x="1593" d="M90 684q0 147 55.5 275t151.5 224.5t225 152t275 55.5q147 0 275 -55.5t224.5 -152t151.5 -224.5t55 -275q0 -145 -55 -274t-151.5 -225.5t-224.5 -152t-275 -55.5q-145 0 -274.5 55.5t-225.5 152t-151.5 225.5t-55.5 274zM160 684q0 -131 50 -246.5t137 -203t203 -137.5 t247 -50t246.5 50t202.5 137.5t137.5 203t50.5 246.5t-50.5 247t-137.5 203t-202.5 137t-246.5 50t-247 -50t-203 -137t-137 -203t-50 -247zM379 686q0 94 33.5 173t91 136.5t135.5 90t166 32.5q96 0 172 -35.5t129 -99.5l-59 -57q-41 53 -105.5 84.5t-136.5 31.5 q-68 0 -130.5 -25.5t-108.5 -72.5t-73.5 -112.5t-27.5 -145.5q0 -78 27.5 -144.5t73.5 -114.5t108.5 -74.5t130.5 -26.5q74 0 138.5 32.5t105.5 85.5l59 -57q-55 -66 -131 -101.5t-172 -35.5q-88 0 -166 32.5t-135.5 91t-91 138.5t-33.5 174z" />
<glyph unicode="&#xaa;" horiz-adv-x="782" d="M72 864q0 53 19.5 92t52 66t73.5 39t82 12q78 0 130 -23.5t83 -58.5v94q0 57 -42 89t-108 32q-51 0 -102 -21.5t-92 -66.5l-64 103q59 53 132 79.5t151 26.5q55 0 106.5 -12t90.5 -41t62.5 -75t23.5 -116v-415h-158v67q-31 -35 -83 -59.5t-130 -24.5q-41 0 -82 13.5 t-73.5 40t-52 66.5t-19.5 93zM229 864q0 -53 39 -82.5t94 -29.5q45 0 86 17t64 50v90q-23 31 -63.5 48.5t-86.5 17.5q-55 0 -94 -30t-39 -81z" />
<glyph unicode="&#xab;" horiz-adv-x="1001" d="M61 498l328 362h203l-328 -362l328 -369h-203zM410 498l327 362h203l-328 -362l328 -369h-203z" />
<glyph unicode="&#xac;" horiz-adv-x="1044" d="M59 809v139h910v-528h-144v389h-766z" />
<glyph unicode="&#xad;" horiz-adv-x="614" d="M61 403v185h492v-185h-492z" />
<glyph unicode="&#xae;" horiz-adv-x="1011" d="M72 952q0 90 33.5 170t93 138.5t138.5 92t169 33.5t170 -33.5t138 -92t92 -138.5t34 -170t-34 -168.5t-92 -138t-138 -93.5t-170 -34t-169 34t-138.5 93.5t-93 138t-33.5 168.5zM133 952q0 -78 28.5 -145.5t80 -117.5t119 -79.5t145.5 -29.5q76 0 143.5 29.5t118.5 79.5 t80 117.5t29 145.5t-29 145.5t-80 118t-118.5 79t-143.5 28.5q-78 0 -145.5 -28.5t-119 -79t-80 -118t-28.5 -145.5zM340 702v498h203q63 0 111 -41t48 -110q0 -41 -15 -70t-36.5 -46.5t-43 -24.5t-32.5 -7l134 -199h-84l-129 197h-88v-197h-68zM408 961h135q33 0 61.5 24.5 t28.5 63.5q0 41 -29 66.5t-61 25.5h-135v-180z" />
<glyph unicode="&#xaf;" horiz-adv-x="743" d="M0 1159v127h743v-127h-743z" />
<glyph unicode="&#xb0;" horiz-adv-x="618" d="M43 1120q0 55 20.5 103.5t56.5 84t84 57t103 21.5t103.5 -21.5t85 -57t57 -84t20.5 -103.5t-20.5 -103t-57 -84t-85 -56.5t-103.5 -20.5t-103 20.5t-84 56.5t-56.5 84t-20.5 103zM168 1120q0 -59 40 -100t99 -41t101.5 41t42.5 100t-42 101.5t-102 42.5q-59 0 -99 -42 t-40 -102z" />
<glyph unicode="&#xb1;" horiz-adv-x="1028" d="M59 0v137h910v-137h-910zM59 666v137h379v411h152v-411h379v-137h-379v-426h-152v426h-379z" />
<glyph unicode="&#xb2;" horiz-adv-x="804" d="M84 1560q59 70 145 101.5t172 31.5q63 0 121 -15t101 -47t67.5 -79t24.5 -108q0 -111 -98.5 -216.5t-278.5 -232.5h383v-133h-623v121q125 88 212 154.5t140.5 117.5t77 93t23.5 83q0 66 -46 97.5t-108 31.5q-74 0 -134 -31.5t-91 -72.5z" />
<glyph unicode="&#xb3;" horiz-adv-x="804" d="M74 979l84 106q45 -51 108.5 -77.5t126.5 -26.5q80 0 124 31.5t44 85.5q0 68 -55 92t-139 24h-53.5t-34.5 -2v133q12 -2 36.5 -2h49.5q84 0 133 24.5t49 84.5q0 53 -47 80.5t-117 27.5q-127 0 -219 -94l-80 98q51 55 128 92t187 37q145 0 228.5 -60t83.5 -161 q0 -41 -15.5 -73.5t-42 -56t-59.5 -38t-66 -20.5q31 -2 66 -15.5t63.5 -38t48 -60.5t19.5 -83q0 -106 -88 -172.5t-238 -66.5q-117 0 -198.5 37.5t-126.5 93.5z" />
<glyph unicode="&#xb4;" horiz-adv-x="491" d="M0 1139l287 295h205l-338 -295h-154z" />
<glyph unicode="&#xb5;" horiz-adv-x="1189" d="M139 -377v1366h215v-622q0 -111 54.5 -157t146.5 -46q80 0 146.5 40t105.5 91v694h215v-721q0 -47 23.5 -74.5t64.5 -27.5q18 0 39 4l14 -182q-20 -6 -48 -9.5t-54 -3.5q-104 0 -162.5 45.5t-81.5 131.5q-47 -74 -124 -125.5t-169 -51.5q-70 0 -110.5 22.5t-59.5 51.5 v-426h-215z" />
<glyph unicode="&#xb6;" horiz-adv-x="919" d="M55 1014q0 74 28 137t76 111.5t111.5 76t137.5 27.5h395v-1571h-113v1458h-170v-1458h-112v867q-74 0 -137.5 27.5t-111.5 75.5t-76 111.5t-28 137.5z" />
<glyph unicode="&#xb7;" horiz-adv-x="501" d="M106 500q0 59 42 101t102 42q59 0 101 -42t42 -101q0 -57 -42 -99.5t-101 -42.5t-101.5 42t-42.5 100z" />
<glyph unicode="&#xb8;" horiz-adv-x="438" d="M0 -334l45 94q39 -31 82 -45t84 -14q45 0 80 18.5t35 55.5q0 61 -68 61q-43 0 -70 -31l-84 48l64 170h113l-54 -132q33 23 74 23q59 0 98 -39t39 -102q0 -39 -17.5 -71t-48 -53.5t-70.5 -33.5t-85 -12q-72 0 -129 19.5t-88 43.5z" />
<glyph unicode="&#xb9;" horiz-adv-x="540" d="M20 1427l254 254h144v-819h-166v606l-137 -141z" />
<glyph unicode="&#xba;" horiz-adv-x="829" d="M70 989q0 70 24.5 131.5t68.5 107.5t107.5 72.5t143.5 26.5t144.5 -26.5t109.5 -72.5t68.5 -107.5t23.5 -131.5t-23.5 -131t-68.5 -107t-109.5 -73t-144.5 -27t-143.5 27t-107.5 73t-68.5 107.5t-24.5 130.5zM233 989q0 -92 47.5 -150.5t133.5 -58.5t134 58.5t48 150.5 t-48 148.5t-134 56.5t-133.5 -56.5t-47.5 -148.5z" />
<glyph unicode="&#xbb;" horiz-adv-x="1001" d="M61 129l328 369l-328 362h203l328 -362l-328 -369h-203zM410 129l327 369l-327 362h202l328 -362l-328 -369h-202z" />
<glyph unicode="&#xbc;" horiz-adv-x="1650" d="M20 1112l254 254h144v-819h-166v606l-137 -141zM256 0l872 1366h139l-874 -1366h-137zM912 188v115l335 516h230v-500h112v-131h-112v-188h-164v188h-401zM1075 319h238v359z" />
<glyph unicode="&#xbd;" horiz-adv-x="1722" d="M20 1112l254 254h144v-819h-166v606l-137 -141zM256 0l872 1366h139l-874 -1366h-137zM999 698q59 70 145 101.5t172 31.5q63 0 121 -15t101 -47t67.5 -79t24.5 -108q0 -111 -98.5 -216.5t-278.5 -232.5h383v-133h-623v121q125 88 212 154.5t140.5 117.5t77 93t23.5 83 q0 66 -46 97.5t-108 31.5q-74 0 -134 -31.5t-91 -72.5z" />
<glyph unicode="&#xbe;" horiz-adv-x="1847" d="M74 664l84 106q45 -51 108.5 -77.5t126.5 -26.5q80 0 124 31.5t44 85.5q0 68 -55 92t-139 24h-53.5t-34.5 -2v133q12 -2 36.5 -2h49.5q84 0 133 24.5t49 84.5q0 53 -47 80.5t-117 27.5q-127 0 -219 -94l-80 98q51 55 128 92t187 37q145 0 228.5 -60t83.5 -161 q0 -41 -15.5 -73.5t-42 -56t-59.5 -38t-66 -20.5q31 -2 66 -15.5t63.5 -38t48 -60.5t19.5 -83q0 -106 -88 -172.5t-238 -66.5q-117 0 -198.5 37.5t-126.5 93.5zM453 0l872 1366h139l-874 -1366h-137zM1110 188v115l335 516h230v-500h112v-131h-112v-188h-164v188h-401z M1273 319h238v359z" />
<glyph unicode="&#xbf;" horiz-adv-x="811" d="M49 -80q0 76 27.5 130t67.5 96t88.5 75t88 64.5t67.5 65.5t28 81q0 25 -12.5 50.5t-32.5 41.5l180 60q74 -72 74 -174q0 -63 -25 -108.5t-61.5 -81.5t-78.5 -64.5t-79 -58t-61.5 -62.5t-24.5 -76q0 -59 47 -103t147 -44q94 0 163 38.5t122 104.5l137 -154 q-78 -96 -192.5 -149t-253.5 -53q-96 0 -174 24.5t-131.5 67.5t-82 101t-28.5 128zM334 866q0 59 42 101.5t101 42.5t101.5 -42t42.5 -102q0 -57 -42 -99t-102 -42q-59 0 -101 42t-42 99z" />
<glyph unicode="&#xc0;" d="M2 0l537 1366h299l536 -1366h-272l-101 262h-626l-101 -262h-272zM324 1776h205l287 -295h-154zM442 473h492l-246 651z" />
<glyph unicode="&#xc1;" d="M2 0l537 1366h299l536 -1366h-272l-101 262h-626l-101 -262h-272zM442 473h492l-246 651zM565 1481l287 295h205l-338 -295h-154z" />
<glyph unicode="&#xc2;" d="M2 0l537 1366h299l536 -1366h-272l-101 262h-626l-101 -262h-272zM399 1481l190 295h197l197 -295h-138l-157 196l-154 -196h-135zM442 473h492l-246 651z" />
<glyph unicode="&#xc3;" d="M2 0l537 1366h299l536 -1366h-272l-101 262h-626l-101 -262h-272zM360 1489q0 127 53 200.5t158 73.5q53 0 86 -24.5t57.5 -55t46 -55t54.5 -24.5q35 0 59.5 34.5t24.5 112.5h118q0 -127 -53.5 -200.5t-157.5 -73.5q-53 0 -85.5 24.5t-57 55t-46 55t-54.5 24.5 q-35 0 -60.5 -34.5t-25.5 -112.5h-117zM442 473h492l-246 651z" />
<glyph unicode="&#xc4;" d="M2 0l537 1366h299l536 -1366h-272l-101 262h-626l-101 -262h-272zM354 1587q0 49 35 84t86 35q49 0 84 -35t35 -84q0 -51 -35 -86t-84 -35q-51 0 -86 35t-35 86zM442 473h492l-246 651zM782 1587q0 49 36 84t85 35t85 -35t36 -84q0 -51 -36 -86t-85 -35t-85 35t-36 86z " />
<glyph unicode="&#xc5;" d="M2 0l537 1366h299l536 -1366h-272l-101 262h-626l-101 -262h-272zM442 473h492l-246 651zM481 1620q0 43 16.5 80.5t45 67.5t66.5 46.5t81 16.5t81 -16.5t65.5 -46.5t44 -67.5t16.5 -80.5t-16.5 -81t-44 -67t-65.5 -45t-81 -16t-81 16t-66.5 45t-45 67t-16.5 81z M583 1620q0 -43 32 -75t75 -32q45 0 74.5 32t29.5 75q0 45 -29.5 75.5t-74.5 30.5q-43 0 -75 -30.5t-32 -75.5z" />
<glyph unicode="&#xc6;" horiz-adv-x="1964" d="M-4 0l840 1366h1032v-211h-697v-354h682v-211h-682v-379h697v-211h-936v262h-506l-158 -262h-272zM541 473h391v651z" />
<glyph unicode="&#xc7;" horiz-adv-x="1396" d="M84 682q0 158 55.5 288t151.5 223t227 144.5t283 51.5q104 0 188 -25t151.5 -68t119 -98t90.5 -117l-205 -104q-49 86 -141.5 142.5t-202.5 56.5q-102 0 -188.5 -37t-149 -102.5t-98 -157t-35.5 -197.5q0 -109 35.5 -199t98 -155.5t148.5 -102.5t189 -37q111 0 203 56.5 t141 142.5l205 -104q-37 -59 -87.5 -113.5t-114 -95.5t-143 -67.5t-176.5 -31.5l-30 -75q33 23 73 22q59 0 98.5 -39t39.5 -102q0 -39 -17.5 -71t-48.5 -53.5t-71 -33.5t-85 -12q-72 0 -129 19.5t-88 43.5l45 95q39 -31 82 -45.5t84 -14.5q45 0 80 18.5t35 55.5q0 61 -68 61 q-43 0 -69 -30l-84 47l43 119q-135 12 -252 68t-202 148.5t-133 215.5t-48 270z" />
<glyph unicode="&#xc8;" horiz-adv-x="1181" d="M145 0v1366h936v-211h-696v-354h682v-211h-682v-379h696v-211h-936zM246 1776h205l287 -295h-154z" />
<glyph unicode="&#xc9;" horiz-adv-x="1181" d="M145 0v1366h936v-211h-696v-354h682v-211h-682v-379h696v-211h-936zM487 1481l287 295h205l-338 -295h-154z" />
<glyph unicode="&#xca;" horiz-adv-x="1181" d="M145 0v1366h936v-211h-696v-354h682v-211h-682v-379h696v-211h-936zM322 1481l190 295h197l197 -295h-138l-157 196l-154 -196h-135z" />
<glyph unicode="&#xcb;" horiz-adv-x="1181" d="M145 0v1366h936v-211h-696v-354h682v-211h-682v-379h696v-211h-936zM279 1587q0 49 35 84t86 35q49 0 84 -35t35 -84q0 -51 -35 -86t-84 -35q-51 0 -86 35t-35 86zM707 1587q0 49 36 84t85 35t85 -35t36 -84q0 -51 -36 -86t-85 -35t-85 35t-36 86z" />
<glyph unicode="&#xcc;" horiz-adv-x="530" d="M-100 1776h205l287 -295h-154zM145 0v1366h240v-1366h-240z" />
<glyph unicode="&#xcd;" horiz-adv-x="530" d="M143 1481l287 295h205l-338 -295h-154zM145 0v1366h240v-1366h-240z" />
<glyph unicode="&#xce;" horiz-adv-x="530" d="M-23 1481l190 295h197l197 -295h-138l-157 196l-154 -196h-135zM145 0v1366h240v-1366h-240z" />
<glyph unicode="&#xcf;" horiz-adv-x="530" d="M-66 1587q0 49 35 84t86 35q49 0 84 -35t35 -84q0 -51 -35 -86t-84 -35q-51 0 -86 35t-35 86zM145 0v1366h240v-1366h-240zM362 1587q0 49 36 84t85 35t85 -35t36 -84q0 -51 -36 -86t-85 -35t-85 35t-36 86z" />
<glyph unicode="&#xd0;" horiz-adv-x="1507" d="M18 584v176h181v606h508q160 0 291.5 -50t225 -141.5t145.5 -217.5t52 -275q0 -152 -52 -276.5t-145.5 -215t-225.5 -140.5t-291 -50h-508v584h-181zM438 211h269q111 0 198.5 37t147 101.5t91.5 150.5t32 182q0 98 -31 185t-90.5 150.5t-146.5 100.5t-201 37h-269v-395 h324v-176h-324v-373z" />
<glyph unicode="&#xd1;" horiz-adv-x="1474" d="M145 0v1366h246l699 -948v948h239v-1366h-231l-713 975v-975h-240zM406 1489q0 127 53 200.5t158 73.5q53 0 86 -24.5t57.5 -55t46 -55t54.5 -24.5q35 0 59.5 34.5t24.5 112.5h118q0 -127 -53.5 -200.5t-157.5 -73.5q-53 0 -85.5 24.5t-57 55t-46 55t-54.5 24.5 q-35 0 -60.5 -34.5t-25.5 -112.5h-117z" />
<glyph unicode="&#xd2;" horiz-adv-x="1566" d="M84 682q0 154 51 283t144.5 223t221.5 147.5t281 53.5q154 0 282 -53.5t221 -147.5t144.5 -223t51.5 -283t-51.5 -283t-144.5 -223t-221 -147.5t-282 -53.5t-281.5 53.5t-221 147.5t-144.5 223t-51 283zM330 682q0 -104 31.5 -195.5t91 -157t142.5 -103.5t187 -38 q102 0 186.5 38t143.5 103.5t91 157t32 195.5q0 106 -32 196.5t-91 156t-143 103.5t-187 38q-104 0 -187 -38t-142.5 -103.5t-91 -156t-31.5 -196.5zM418 1776h205l287 -295h-154z" />
<glyph unicode="&#xd3;" horiz-adv-x="1566" d="M84 682q0 154 51 283t144.5 223t221.5 147.5t281 53.5q154 0 282 -53.5t221 -147.5t144.5 -223t51.5 -283t-51.5 -283t-144.5 -223t-221 -147.5t-282 -53.5t-281.5 53.5t-221 147.5t-144.5 223t-51 283zM330 682q0 -104 31.5 -195.5t91 -157t142.5 -103.5t187 -38 q102 0 186.5 38t143.5 103.5t91 157t32 195.5q0 106 -32 196.5t-91 156t-143 103.5t-187 38q-104 0 -187 -38t-142.5 -103.5t-91 -156t-31.5 -196.5zM659 1481l287 295h205l-338 -295h-154z" />
<glyph unicode="&#xd4;" horiz-adv-x="1566" d="M84 682q0 154 51 283t144.5 223t221.5 147.5t281 53.5q154 0 282 -53.5t221 -147.5t144.5 -223t51.5 -283t-51.5 -283t-144.5 -223t-221 -147.5t-282 -53.5t-281.5 53.5t-221 147.5t-144.5 223t-51 283zM330 682q0 -104 31.5 -195.5t91 -157t142.5 -103.5t187 -38 q102 0 186.5 38t143.5 103.5t91 157t32 195.5q0 106 -32 196.5t-91 156t-143 103.5t-187 38q-104 0 -187 -38t-142.5 -103.5t-91 -156t-31.5 -196.5zM496 1481l190 295h197l197 -295h-138l-157 196l-154 -196h-135z" />
<glyph unicode="&#xd5;" horiz-adv-x="1566" d="M84 682q0 154 51 283t144.5 223t221.5 147.5t281 53.5q154 0 282 -53.5t221 -147.5t144.5 -223t51.5 -283t-51.5 -283t-144.5 -223t-221 -147.5t-282 -53.5t-281.5 53.5t-221 147.5t-144.5 223t-51 283zM330 682q0 -104 31.5 -195.5t91 -157t142.5 -103.5t187 -38 q102 0 186.5 38t143.5 103.5t91 157t32 195.5q0 106 -32 196.5t-91 156t-143 103.5t-187 38q-104 0 -187 -38t-142.5 -103.5t-91 -156t-31.5 -196.5zM455 1489q0 127 53 200.5t158 73.5q53 0 86 -24.5t57.5 -55t46 -55t54.5 -24.5q35 0 59.5 34.5t24.5 112.5h118 q0 -127 -53.5 -200.5t-157.5 -73.5q-53 0 -85.5 24.5t-57 55t-46 55t-54.5 24.5q-35 0 -60.5 -34.5t-25.5 -112.5h-117z" />
<glyph unicode="&#xd6;" horiz-adv-x="1566" d="M84 682q0 154 51 283t144.5 223t221.5 147.5t281 53.5q154 0 282 -53.5t221 -147.5t144.5 -223t51.5 -283t-51.5 -283t-144.5 -223t-221 -147.5t-282 -53.5t-281.5 53.5t-221 147.5t-144.5 223t-51 283zM330 682q0 -104 31.5 -195.5t91 -157t142.5 -103.5t187 -38 q102 0 186.5 38t143.5 103.5t91 157t32 195.5q0 106 -32 196.5t-91 156t-143 103.5t-187 38q-104 0 -187 -38t-142.5 -103.5t-91 -156t-31.5 -196.5zM449 1587q0 49 35 84t86 35q49 0 84 -35t35 -84q0 -51 -35 -86t-84 -35q-51 0 -86 35t-35 86zM877 1587q0 49 36 84t85 35 t85 -35t36 -84q0 -51 -36 -86t-85 -35t-85 35t-36 86z" />
<glyph unicode="&#xd7;" horiz-adv-x="1028" d="M121 387l295 297l-295 295l98 98l295 -297l295 297l98 -98l-295 -295l295 -297l-98 -96l-295 295l-295 -295z" />
<glyph unicode="&#xd8;" horiz-adv-x="1566" d="M84 682q0 154 51 283t144.5 223t221.5 147.5t281 53.5q98 0 185.5 -21.5t162.5 -62.5l46 61h178l-105 -145q109 -96 170.5 -234.5t61.5 -304.5q0 -154 -51.5 -283t-144.5 -223t-221 -147.5t-282 -53.5q-207 0 -366 95l-51 -70h-179l113 156q-102 96 -158.5 230t-56.5 296 zM330 682q0 -201 106 -336l563 776q-96 53 -217 54q-104 0 -187 -38t-142.5 -103.5t-91 -156t-31.5 -196.5zM547 250q49 -29 108 -45.5t127 -16.5q102 0 186.5 38t143.5 103.5t91 157t32 195.5t-32 195.5t-91 156.5z" />
<glyph unicode="&#xd9;" horiz-adv-x="1472" d="M145 539v827h242v-819q0 -164 88 -261.5t262 -97.5q172 0 260 97.5t88 261.5v819h242v-825q0 -127 -37 -231.5t-110.5 -178.5t-184.5 -115t-258 -41q-150 0 -260 41t-184 115t-111 177.5t-37 230.5zM371 1776h205l287 -295h-154z" />
<glyph unicode="&#xda;" horiz-adv-x="1472" d="M145 539v827h242v-819q0 -164 88 -261.5t262 -97.5q172 0 260 97.5t88 261.5v819h242v-825q0 -127 -37 -231.5t-110.5 -178.5t-184.5 -115t-258 -41q-150 0 -260 41t-184 115t-111 177.5t-37 230.5zM612 1481l287 295h205l-338 -295h-154z" />
<glyph unicode="&#xdb;" horiz-adv-x="1472" d="M145 539v827h242v-819q0 -164 88 -261.5t262 -97.5q172 0 260 97.5t88 261.5v819h242v-825q0 -127 -37 -231.5t-110.5 -178.5t-184.5 -115t-258 -41q-150 0 -260 41t-184 115t-111 177.5t-37 230.5zM449 1481l190 295h197l197 -295h-138l-157 196l-154 -196h-135z" />
<glyph unicode="&#xdc;" horiz-adv-x="1472" d="M145 539v827h242v-819q0 -164 88 -261.5t262 -97.5q172 0 260 97.5t88 261.5v819h242v-825q0 -127 -37 -231.5t-110.5 -178.5t-184.5 -115t-258 -41q-150 0 -260 41t-184 115t-111 177.5t-37 230.5zM406 1587q0 49 35 84t86 35q49 0 84 -35t35 -84q0 -51 -35 -86t-84 -35 q-51 0 -86 35t-35 86zM834 1587q0 49 36 84t85 35t85 -35t36 -84q0 -51 -36 -86t-85 -35t-85 35t-36 86z" />
<glyph unicode="&#xdd;" horiz-adv-x="1304" d="M2 1366h274l377 -586l373 586h274l-528 -799v-567h-240v567zM526 1481l287 295h205l-338 -295h-154z" />
<glyph unicode="&#xde;" horiz-adv-x="1245" d="M145 0v1366h240v-231h360q106 0 190.5 -35t141 -93.5t86 -136t29.5 -165.5q0 -86 -29.5 -164t-87 -135.5t-140.5 -91t-190 -33.5h-360v-281h-240zM385 492h328q102 0 167.5 58t65.5 157q0 98 -65.5 157.5t-167.5 59.5h-328v-432z" />
<glyph unicode="&#xdf;" horiz-adv-x="1275" d="M139 0v993q0 80 30 152t86 126t137 84.5t183 30.5q76 0 148 -19t126 -55t87 -88.5t33 -117.5q0 -57 -21.5 -98t-52.5 -72t-69 -55.5t-68.5 -48t-52 -50t-21.5 -61.5q0 -43 41 -65.5t103.5 -38t134 -32t134 -50t103.5 -92t41 -156.5q0 -66 -26.5 -122t-78 -98t-126 -67 t-168.5 -25q-74 0 -132.5 12.5t-104.5 34t-84 51t-72 62.5l96 150q43 -55 121.5 -96.5t175.5 -41.5q98 0 145 40t47 94q0 47 -41 72.5t-103.5 44t-134 36t-134 49t-103.5 86t-41 146.5q0 55 20.5 95t50.5 70.5t65.5 55.5t65.5 47.5t50.5 45t20.5 48.5q0 29 -15.5 51.5 t-41 38t-57.5 22.5t-65 7q-92 0 -154.5 -53t-62.5 -150v-993h-215z" />
<glyph unicode="&#xe0;" horiz-adv-x="1097" d="M80 303q0 86 30.5 146.5t80 99.5t110.5 57.5t123 18.5q100 0 183 -32t136 -95v147q0 86 -63.5 135t-167.5 49q-166 0 -293 -124l-88 149q86 82 191.5 121t224.5 39q82 0 156.5 -18.5t131 -60.5t90 -110.5t33.5 -169.5v-655h-215v106q-55 -63 -138 -97t-181 -34 q-61 0 -122.5 20.5t-111 61.5t-80 102.5t-30.5 143.5zM180 1434h205l287 -295h-154zM297 299q0 -80 59.5 -128t151.5 -48q72 0 135.5 25.5t99.5 76.5v150q-37 51 -100 76.5t-135 25.5q-92 0 -151.5 -48t-59.5 -130z" />
<glyph unicode="&#xe1;" horiz-adv-x="1097" d="M80 303q0 86 30.5 146.5t80 99.5t110.5 57.5t123 18.5q100 0 183 -32t136 -95v147q0 86 -63.5 135t-167.5 49q-166 0 -293 -124l-88 149q86 82 191.5 121t224.5 39q82 0 156.5 -18.5t131 -60.5t90 -110.5t33.5 -169.5v-655h-215v106q-55 -63 -138 -97t-181 -34 q-61 0 -122.5 20.5t-111 61.5t-80 102.5t-30.5 143.5zM297 299q0 -80 59.5 -128t151.5 -48q72 0 135.5 25.5t99.5 76.5v150q-37 51 -100 76.5t-135 25.5q-92 0 -151.5 -48t-59.5 -130zM422 1139l287 295h205l-338 -295h-154z" />
<glyph unicode="&#xe2;" horiz-adv-x="1097" d="M80 303q0 86 30.5 146.5t80 99.5t110.5 57.5t123 18.5q100 0 183 -32t136 -95v147q0 86 -63.5 135t-167.5 49q-166 0 -293 -124l-88 149q86 82 191.5 121t224.5 39q82 0 156.5 -18.5t131 -60.5t90 -110.5t33.5 -169.5v-655h-215v106q-55 -63 -138 -97t-181 -34 q-61 0 -122.5 20.5t-111 61.5t-80 102.5t-30.5 143.5zM256 1139l190 295h197l197 -295h-138l-157 196l-154 -196h-135zM297 299q0 -80 59.5 -128t151.5 -48q72 0 135.5 25.5t99.5 76.5v150q-37 51 -100 76.5t-135 25.5q-92 0 -151.5 -48t-59.5 -130z" />
<glyph unicode="&#xe3;" horiz-adv-x="1097" d="M80 303q0 86 30.5 146.5t80 99.5t110.5 57.5t123 18.5q100 0 183 -32t136 -95v147q0 86 -63.5 135t-167.5 49q-166 0 -293 -124l-88 149q86 82 191.5 121t224.5 39q82 0 156.5 -18.5t131 -60.5t90 -110.5t33.5 -169.5v-655h-215v106q-55 -63 -138 -97t-181 -34 q-61 0 -122.5 20.5t-111 61.5t-80 102.5t-30.5 143.5zM219 1147q0 127 53 200.5t158 73.5q53 0 86 -24.5t57.5 -55t46 -55t54.5 -24.5q35 0 59.5 34.5t24.5 112.5h118q0 -127 -53.5 -200.5t-157.5 -73.5q-53 0 -85.5 24.5t-57 55t-46 55t-54.5 24.5q-35 0 -60.5 -34.5 t-25.5 -112.5h-117zM297 299q0 -80 59.5 -128t151.5 -48q72 0 135.5 25.5t99.5 76.5v150q-37 51 -100 76.5t-135 25.5q-92 0 -151.5 -48t-59.5 -130z" />
<glyph unicode="&#xe4;" horiz-adv-x="1097" d="M80 303q0 86 30.5 146.5t80 99.5t110.5 57.5t123 18.5q100 0 183 -32t136 -95v147q0 86 -63.5 135t-167.5 49q-166 0 -293 -124l-88 149q86 82 191.5 121t224.5 39q82 0 156.5 -18.5t131 -60.5t90 -110.5t33.5 -169.5v-655h-215v106q-55 -63 -138 -97t-181 -34 q-61 0 -122.5 20.5t-111 61.5t-80 102.5t-30.5 143.5zM213 1245q0 49 35 84t86 35q49 0 84 -35t35 -84q0 -51 -35 -86t-84 -35q-51 0 -86 35t-35 86zM297 299q0 -80 59.5 -128t151.5 -48q72 0 135.5 25.5t99.5 76.5v150q-37 51 -100 76.5t-135 25.5q-92 0 -151.5 -48 t-59.5 -130zM641 1245q0 49 36 84t85 35t85 -35t36 -84q0 -51 -36 -86t-85 -35t-85 35t-36 86z" />
<glyph unicode="&#xe5;" horiz-adv-x="1097" d="M80 303q0 86 30.5 146.5t80 99.5t110.5 57.5t123 18.5q100 0 183 -32t136 -95v147q0 86 -63.5 135t-167.5 49q-166 0 -293 -124l-88 149q86 82 191.5 121t224.5 39q82 0 156.5 -18.5t131 -60.5t90 -110.5t33.5 -169.5v-655h-215v106q-55 -63 -138 -97t-181 -34 q-61 0 -122.5 20.5t-111 61.5t-80 102.5t-30.5 143.5zM297 299q0 -80 59.5 -128t151.5 -48q72 0 135.5 25.5t99.5 76.5v150q-37 51 -100 76.5t-135 25.5q-92 0 -151.5 -48t-59.5 -130zM340 1307q0 43 16.5 80.5t45 67.5t66.5 46.5t81 16.5t81 -16.5t65.5 -46.5t44 -67.5 t16.5 -80.5t-16.5 -81t-44 -67t-65.5 -45t-81 -16t-81 16t-66.5 45t-45 67t-16.5 81zM442 1307q0 -43 32 -75t75 -32q45 0 74.5 32t29.5 75q0 45 -29.5 75.5t-74.5 30.5q-43 0 -75 -30.5t-32 -75.5z" />
<glyph unicode="&#xe6;" horiz-adv-x="1798" d="M80 301q0 80 29.5 141.5t79 101.5t115 60.5t138.5 20.5q104 0 195.5 -31t153.5 -92v145q0 86 -71 134t-181 48q-92 0 -170 -29.5t-150 -94.5l-88 149q88 82 195.5 121t230.5 39q135 0 227.5 -49.5t128.5 -141.5q27 39 61 74t77 60.5t98 41t127 15.5q104 0 187 -40 t141.5 -113t89 -171t30.5 -215v-51h-718q6 -55 27.5 -104.5t58 -86t88 -57t116.5 -20.5q68 0 140.5 27.5t119.5 80.5l99 -145q-74 -72 -174.5 -108t-194.5 -36q-125 0 -224 45.5t-165 155.5q-59 -88 -170 -144.5t-246 -56.5q-78 0 -150.5 20.5t-128 60.5t-89 101.5 t-33.5 143.5zM297 315q0 -80 65.5 -119.5t165.5 -39.5q53 0 101.5 18.5t84.5 47t56.5 65.5t20.5 71v15q-43 49 -114 76.5t-149 27.5q-100 0 -165.5 -41t-65.5 -121zM1004 575h512q-2 43 -17.5 90.5t-46.5 85t-78 62.5t-114 25q-63 0 -109.5 -23.5t-78.5 -61.5t-49 -85 t-19 -93z" />
<glyph unicode="&#xe7;" horiz-adv-x="1017" d="M78 496q0 113 38 207t105.5 163.5t161.5 108.5t207 39q145 0 235 -52.5t144 -123.5l-142 -131q-84 117 -227 116q-68 0 -123 -24.5t-94 -67.5t-60.5 -103.5t-21.5 -131.5q0 -72 21.5 -132.5t60.5 -104.5t94 -68.5t123 -24.5q141 0 227 117l142 -131q-47 -66 -128 -115 t-204 -60l-33 -81q33 23 74 22q59 0 98 -39t39 -102q0 -39 -17.5 -71t-48 -53.5t-70.5 -33.5t-85 -12q-72 0 -129 19.5t-88 43.5l45 94q39 -31 82 -45t84 -14q45 0 79.5 18.5t34.5 55.5q0 61 -67 61q-43 0 -70 -30l-84 47l45 123q-100 10 -182 52t-141.5 110.5t-92 158.5 t-32.5 195z" />
<glyph unicode="&#xe8;" horiz-adv-x="1140" d="M78 496q0 106 37 201.5t103.5 165t158.5 110.5t203 41t200.5 -40t153 -113t98.5 -171t35 -215v-51h-764q6 -55 29.5 -105.5t63.5 -87t96.5 -58t125.5 -21.5q72 0 150 27.5t131 80.5l98 -141q-74 -72 -178 -108t-223 -36q-111 0 -206 37t-164.5 105.5t-108.5 165 t-39 213.5zM215 1434h205l287 -295h-154zM301 575h557q-2 43 -18.5 90.5t-50 85t-85 62.5t-124.5 25q-70 0 -120 -23.5t-84 -61.5t-52.5 -85t-22.5 -93z" />
<glyph unicode="&#xe9;" horiz-adv-x="1140" d="M78 496q0 106 37 201.5t103.5 165t158.5 110.5t203 41t200.5 -40t153 -113t98.5 -171t35 -215v-51h-764q6 -55 29.5 -105.5t63.5 -87t96.5 -58t125.5 -21.5q72 0 150 27.5t131 80.5l98 -141q-74 -72 -178 -108t-223 -36q-111 0 -206 37t-164.5 105.5t-108.5 165 t-39 213.5zM301 575h557q-2 43 -18.5 90.5t-50 85t-85 62.5t-124.5 25q-70 0 -120 -23.5t-84 -61.5t-52.5 -85t-22.5 -93zM457 1139l287 295h205l-338 -295h-154z" />
<glyph unicode="&#xea;" horiz-adv-x="1140" d="M78 496q0 106 37 201.5t103.5 165t158.5 110.5t203 41t200.5 -40t153 -113t98.5 -171t35 -215v-51h-764q6 -55 29.5 -105.5t63.5 -87t96.5 -58t125.5 -21.5q72 0 150 27.5t131 80.5l98 -141q-74 -72 -178 -108t-223 -36q-111 0 -206 37t-164.5 105.5t-108.5 165 t-39 213.5zM291 1139l190 295h197l197 -295h-138l-157 196l-154 -196h-135zM301 575h557q-2 43 -18.5 90.5t-50 85t-85 62.5t-124.5 25q-70 0 -120 -23.5t-84 -61.5t-52.5 -85t-22.5 -93z" />
<glyph unicode="&#xeb;" horiz-adv-x="1140" d="M78 496q0 106 37 201.5t103.5 165t158.5 110.5t203 41t200.5 -40t153 -113t98.5 -171t35 -215v-51h-764q6 -55 29.5 -105.5t63.5 -87t96.5 -58t125.5 -21.5q72 0 150 27.5t131 80.5l98 -141q-74 -72 -178 -108t-223 -36q-111 0 -206 37t-164.5 105.5t-108.5 165 t-39 213.5zM248 1245q0 49 35 84t86 35q49 0 84 -35t35 -84q0 -51 -35 -86t-84 -35q-51 0 -86 35t-35 86zM301 575h557q-2 43 -18.5 90.5t-50 85t-85 62.5t-124.5 25q-70 0 -120 -23.5t-84 -61.5t-52.5 -85t-22.5 -93zM676 1245q0 49 36 84t85 35t85 -35t36 -84 q0 -51 -36 -86t-85 -35t-85 35t-36 86z" />
<glyph unicode="&#xec;" horiz-adv-x="493" d="M-119 1434h205l287 -295h-154zM139 0v989h215v-989h-215z" />
<glyph unicode="&#xed;" horiz-adv-x="493" d="M123 1139l287 295h205l-338 -295h-154zM139 0v989h215v-989h-215z" />
<glyph unicode="&#xee;" horiz-adv-x="493" d="M-43 1139l190 295h197l197 -295h-138l-157 196l-154 -196h-135zM139 0v989h215v-989h-215z" />
<glyph unicode="&#xef;" horiz-adv-x="493" d="M-86 1245q0 49 35 84t86 35q49 0 84 -35t35 -84q0 -51 -35 -86t-84 -35q-51 0 -86 35t-35 86zM139 0v989h215v-989h-215zM342 1245q0 49 36 84t85 35t85 -35t36 -84q0 -51 -36 -86t-85 -35t-85 35t-36 86z" />
<glyph unicode="&#xf0;" horiz-adv-x="1173" d="M78 467q0 106 33.5 196.5t93 156t140.5 102t177 36.5q203 0 326 -186q-47 98 -133 182t-191 162l-297 -131l-45 107l230 100q-35 23 -69 43t-69 43l117 174q131 -78 242 -162l215 94l45 -104l-160 -72q164 -145 263.5 -316t99.5 -380q0 -117 -35 -216t-101.5 -170 t-160.5 -111t-213 -40q-115 0 -208 37t-159.5 102.5t-103.5 155.5t-37 197zM301 467q0 -61 18.5 -115.5t55.5 -95.5t90 -65.5t121 -24.5q70 0 123 24.5t90 65.5t55 95.5t18 115.5t-18 115.5t-55 95.5t-90.5 65.5t-122.5 24.5q-68 0 -121 -24.5t-90 -65.5t-55.5 -95.5 t-18.5 -115.5z" />
<glyph unicode="&#xf1;" horiz-adv-x="1161" d="M139 0v989h215v-135q25 29 61 57.5t80 51t96 37t111 14.5q160 0 240 -82t80 -236v-696h-215v618q0 115 -54.5 160t-144.5 45q-84 0 -150.5 -41t-103.5 -92v-690h-215zM254 1147q0 127 53 200.5t158 73.5q53 0 86 -24.5t57.5 -55t46 -55t54.5 -24.5q35 0 59.5 34.5 t24.5 112.5h118q0 -127 -53.5 -200.5t-157.5 -73.5q-53 0 -85.5 24.5t-57 55t-46 55t-54.5 24.5q-35 0 -60.5 -34.5t-25.5 -112.5h-117z" />
<glyph unicode="&#xf2;" horiz-adv-x="1173" d="M78 496q0 106 34.5 200.5t101.5 165t161 111.5t211 41q119 0 213 -41t160.5 -111.5t101.5 -165t35 -200.5t-35 -201.5t-101.5 -166.5t-160.5 -112t-213 -41q-117 0 -211 41t-161 112t-101.5 166t-34.5 202zM221 1434h205l287 -295h-154zM301 496q0 -66 18.5 -126.5 t55.5 -105.5t90 -71.5t121 -26.5q70 0 123 26.5t90 71.5t55 105.5t18 126.5t-18 125t-55 104t-90.5 71.5t-122.5 26.5q-68 0 -121 -26.5t-90 -71.5t-55.5 -104.5t-18.5 -124.5z" />
<glyph unicode="&#xf3;" horiz-adv-x="1173" d="M78 496q0 106 34.5 200.5t101.5 165t161 111.5t211 41q119 0 213 -41t160.5 -111.5t101.5 -165t35 -200.5t-35 -201.5t-101.5 -166.5t-160.5 -112t-213 -41q-117 0 -211 41t-161 112t-101.5 166t-34.5 202zM301 496q0 -66 18.5 -126.5t55.5 -105.5t90 -71.5t121 -26.5 q70 0 123 26.5t90 71.5t55 105.5t18 126.5t-18 125t-55 104t-90.5 71.5t-122.5 26.5q-68 0 -121 -26.5t-90 -71.5t-55.5 -104.5t-18.5 -124.5zM463 1139l287 295h205l-338 -295h-154z" />
<glyph unicode="&#xf4;" horiz-adv-x="1173" d="M78 496q0 106 34.5 200.5t101.5 165t161 111.5t211 41q119 0 213 -41t160.5 -111.5t101.5 -165t35 -200.5t-35 -201.5t-101.5 -166.5t-160.5 -112t-213 -41q-117 0 -211 41t-161 112t-101.5 166t-34.5 202zM295 1139l190 295h197l197 -295h-138l-157 196l-154 -196h-135z M301 496q0 -66 18.5 -126.5t55.5 -105.5t90 -71.5t121 -26.5q70 0 123 26.5t90 71.5t55 105.5t18 126.5t-18 125t-55 104t-90.5 71.5t-122.5 26.5q-68 0 -121 -26.5t-90 -71.5t-55.5 -104.5t-18.5 -124.5z" />
<glyph unicode="&#xf5;" horiz-adv-x="1173" d="M78 496q0 106 34.5 200.5t101.5 165t161 111.5t211 41q119 0 213 -41t160.5 -111.5t101.5 -165t35 -200.5t-35 -201.5t-101.5 -166.5t-160.5 -112t-213 -41q-117 0 -211 41t-161 112t-101.5 166t-34.5 202zM258 1147q0 127 53 200.5t158 73.5q53 0 86 -24.5t57.5 -55 t46 -55t54.5 -24.5q35 0 59.5 34.5t24.5 112.5h118q0 -127 -53.5 -200.5t-157.5 -73.5q-53 0 -85.5 24.5t-57 55t-46 55t-54.5 24.5q-35 0 -60.5 -34.5t-25.5 -112.5h-117zM301 496q0 -66 18.5 -126.5t55.5 -105.5t90 -71.5t121 -26.5q70 0 123 26.5t90 71.5t55 105.5 t18 126.5t-18 125t-55 104t-90.5 71.5t-122.5 26.5q-68 0 -121 -26.5t-90 -71.5t-55.5 -104.5t-18.5 -124.5z" />
<glyph unicode="&#xf6;" horiz-adv-x="1173" d="M78 496q0 106 34.5 200.5t101.5 165t161 111.5t211 41q119 0 213 -41t160.5 -111.5t101.5 -165t35 -200.5t-35 -201.5t-101.5 -166.5t-160.5 -112t-213 -41q-117 0 -211 41t-161 112t-101.5 166t-34.5 202zM252 1245q0 49 35 84t86 35q49 0 84 -35t35 -84q0 -51 -35 -86 t-84 -35q-51 0 -86 35t-35 86zM301 496q0 -66 18.5 -126.5t55.5 -105.5t90 -71.5t121 -26.5q70 0 123 26.5t90 71.5t55 105.5t18 126.5t-18 125t-55 104t-90.5 71.5t-122.5 26.5q-68 0 -121 -26.5t-90 -71.5t-55.5 -104.5t-18.5 -124.5zM680 1245q0 49 36 84t85 35t85 -35 t36 -84q0 -51 -36 -86t-85 -35t-85 35t-36 86z" />
<glyph unicode="&#xf7;" horiz-adv-x="1046" d="M59 621v139h928v-139h-928zM412 309q0 47 31.5 80t78.5 33t80 -33t33 -80t-33 -78.5t-80 -31.5t-78.5 31.5t-31.5 78.5zM412 1065q0 47 31.5 79t78.5 32t80 -32t33 -79t-33 -80t-80 -33t-78.5 33t-31.5 80z" />
<glyph unicode="&#xf8;" horiz-adv-x="1173" d="M78 496q0 106 34.5 200.5t101.5 165t161 111.5t211 41q84 0 155.5 -21.5t130.5 -58.5l46 55h141l-103 -125q68 -72 104 -166t36 -202q0 -106 -35 -201.5t-101.5 -166.5t-160.5 -112t-213 -41q-172 0 -293 86l-51 -61h-140l109 131q-66 72 -99.5 165t-33.5 200zM301 496 q0 -113 49 -195l391 475q-33 23 -70.5 35t-84.5 12q-68 0 -121 -26.5t-90 -71.5t-55.5 -104t-18.5 -125zM422 219q35 -25 75 -39t89 -14q70 0 123 26.5t90 71.5t55 105.5t18 126.5q0 55 -13 107t-42 93z" />
<glyph unicode="&#xf9;" horiz-adv-x="1161" d="M139 289v700h215v-622q0 -115 54.5 -158t144.5 -43q82 0 148.5 39t105.5 90v694h215v-989h-215v131q-53 -59 -143.5 -107.5t-206.5 -48.5q-160 0 -239 80t-79 234zM213 1434h205l287 -295h-154z" />
<glyph unicode="&#xfa;" horiz-adv-x="1161" d="M139 289v700h215v-622q0 -115 54.5 -158t144.5 -43q82 0 148.5 39t105.5 90v694h215v-989h-215v131q-53 -59 -143.5 -107.5t-206.5 -48.5q-160 0 -239 80t-79 234zM455 1139l287 295h205l-338 -295h-154z" />
<glyph unicode="&#xfb;" horiz-adv-x="1161" d="M139 289v700h215v-622q0 -115 54.5 -158t144.5 -43q82 0 148.5 39t105.5 90v694h215v-989h-215v131q-53 -59 -143.5 -107.5t-206.5 -48.5q-160 0 -239 80t-79 234zM289 1139l190 295h197l197 -295h-138l-157 196l-154 -196h-135z" />
<glyph unicode="&#xfc;" horiz-adv-x="1161" d="M139 289v700h215v-622q0 -115 54.5 -158t144.5 -43q82 0 148.5 39t105.5 90v694h215v-989h-215v131q-53 -59 -143.5 -107.5t-206.5 -48.5q-160 0 -239 80t-79 234zM244 1245q0 49 35 84t86 35q49 0 84 -35t35 -84q0 -51 -35 -86t-84 -35q-51 0 -86 35t-35 86zM672 1245 q0 49 36 84t85 35t85 -35t36 -84q0 -51 -36 -86t-85 -35t-85 35t-36 86z" />
<glyph unicode="&#xfd;" horiz-adv-x="1030" d="M-4 989h229l289 -741l289 741h231l-477 -1167q-51 -127 -137 -174t-203 -49q-23 0 -60.5 4t-60.5 10l33 192q16 -8 40 -12t42 -4q51 0 85 18.5t56 67.5l49 113zM389 1139l287 295h205l-338 -295h-154z" />
<glyph unicode="&#xfe;" horiz-adv-x="1183" d="M139 -377v1743h215v-512q55 74 137 117t181 43q96 0 176 -35t138 -101.5t91 -163t33 -218.5q0 -123 -33 -219.5t-91 -163t-138 -102.5t-176 -36q-94 0 -176 41t-142 121v-514h-215zM354 299q18 -27 46 -51.5t62 -43t71.5 -28.5t74.5 -10q129 0 204 92t75 238 q0 72 -19.5 132t-56.5 103t-88 67.5t-115 24.5q-37 0 -74.5 -10t-71.5 -28.5t-61.5 -43t-46.5 -51.5v-391z" />
<glyph unicode="&#xff;" horiz-adv-x="1030" d="M-4 989h229l289 -741l289 741h231l-477 -1167q-51 -127 -137 -174t-203 -49q-23 0 -60.5 4t-60.5 10l33 192q16 -8 40 -12t42 -4q51 0 85 18.5t56 67.5l49 113zM180 1245q0 49 35 84t86 35q49 0 84 -35t35 -84q0 -51 -35 -86t-84 -35q-51 0 -86 35t-35 86zM608 1245 q0 49 36 84t85 35t85 -35t36 -84q0 -51 -36 -86t-85 -35t-85 35t-36 86z" />
<glyph unicode="&#x152;" horiz-adv-x="2238" d="M84 682q0 154 50 283t139 223t213 146t274 52q63 0 126.5 -13t122 -40.5t108.5 -68.5t87 -97v199h936v-211h-696v-354h682v-211h-682v-379h696v-211h-936v197q-37 -55 -87 -97.5t-108.5 -70t-122 -41t-126.5 -13.5q-150 0 -274 53.5t-213 146.5t-139 223t-50 284z M330 682q0 -106 31.5 -196.5t92 -157t145.5 -103.5t192 -37q141 0 250.5 71t162.5 206v434q-53 137 -162.5 206t-250.5 69q-106 0 -191.5 -37t-146 -102.5t-92 -156t-31.5 -196.5z" />
<glyph unicode="&#x153;" horiz-adv-x="1933" d="M78 496q0 106 34.5 200.5t101.5 165t161 111.5t211 41q84 0 148.5 -24.5t112.5 -62.5t81 -81t55 -80q20 37 54 81t81 81t110.5 61.5t145.5 24.5q111 0 201 -40t153.5 -113t97.5 -171t34 -215v-51h-762q6 -55 29.5 -105.5t63.5 -87t95 -58t125 -21.5q74 0 151.5 27.5 t131.5 80.5l98 -141q-76 -72 -180.5 -108t-220.5 -36q-88 0 -155 24t-116 60.5t-82.5 79.5t-56.5 82q-23 -37 -55.5 -80t-79.5 -79.5t-111.5 -61.5t-148.5 -25q-117 0 -211 41t-161 112t-101.5 166t-34.5 202zM301 496q0 -70 20.5 -130.5t57.5 -105.5t89 -70.5t118 -25.5 q68 0 121 25.5t90 70.5t56 105.5t19 130.5t-19 129t-56 103t-90.5 69.5t-120.5 25.5q-66 0 -118 -25.5t-89 -69.5t-57.5 -103.5t-20.5 -128.5zM1096 575h557q-2 43 -19.5 90.5t-51.5 85t-85 62.5t-125 25q-68 0 -119 -23.5t-84.5 -61.5t-52 -85t-20.5 -93z" />
<glyph unicode="&#x178;" horiz-adv-x="1304" d="M2 1366h274l377 -586l373 586h274l-528 -799v-567h-240v567zM319 1587q0 49 35 84t86 35q49 0 84 -35t35 -84q0 -51 -35 -86t-84 -35q-51 0 -86 35t-35 86zM747 1587q0 49 36 84t85 35t85 -35t36 -84q0 -51 -36 -86t-85 -35t-85 35t-36 86z" />
<glyph unicode="&#x2c6;" horiz-adv-x="583" d="M0 1139l190 295h197l197 -295h-138l-157 196l-154 -196h-135z" />
<glyph unicode="&#x2dc;" horiz-adv-x="657" d="M0 1147q0 127 53 200.5t158 73.5q53 0 86 -24.5t57.5 -55t46 -55t54.5 -24.5q35 0 59.5 34.5t24.5 112.5h118q0 -127 -53.5 -200.5t-157.5 -73.5q-53 0 -85.5 24.5t-57 55t-46 55t-54.5 24.5q-35 0 -60.5 -34.5t-25.5 -112.5h-117z" />
<glyph unicode="&#x2000;" horiz-adv-x="915" />
<glyph unicode="&#x2001;" horiz-adv-x="1831" />
<glyph unicode="&#x2002;" horiz-adv-x="915" />
<glyph unicode="&#x2003;" horiz-adv-x="1831" />
<glyph unicode="&#x2004;" horiz-adv-x="610" />
<glyph unicode="&#x2005;" horiz-adv-x="457" />
<glyph unicode="&#x2006;" horiz-adv-x="305" />
<glyph unicode="&#x2007;" horiz-adv-x="305" />
<glyph unicode="&#x2008;" horiz-adv-x="228" />
<glyph unicode="&#x2009;" horiz-adv-x="366" />
<glyph unicode="&#x200a;" horiz-adv-x="101" />
<glyph unicode="&#x2010;" horiz-adv-x="614" d="M61 403v185h492v-185h-492z" />
<glyph unicode="&#x2011;" horiz-adv-x="614" d="M61 403v185h492v-185h-492z" />
<glyph unicode="&#x2012;" horiz-adv-x="614" d="M61 403v185h492v-185h-492z" />
<glyph unicode="&#x2013;" horiz-adv-x="1214" d="M61 403v185h1092v-185h-1092z" />
<glyph unicode="&#x2014;" horiz-adv-x="1705" d="M61 403v185h1584v-185h-1584z" />
<glyph unicode="&#x2018;" horiz-adv-x="499" d="M86 1038q0 106 53.5 197.5t139.5 150.5l96 -77q-25 -14 -49.5 -37t-44 -48.5t-34 -53t-20.5 -54.5q12 4 35 4q53 0 88 -35.5t35 -93.5q0 -57 -41 -98t-98 -41q-63 0 -111.5 48t-48.5 138z" />
<glyph unicode="&#x2019;" horiz-adv-x="499" d="M106 1245q0 59 41 100t99 41q63 0 111.5 -48t48.5 -138q0 -106 -53.5 -198.5t-139.5 -151.5l-96 80q25 14 49 36.5t43.5 48t34 53.5t20.5 54q-4 -2 -14 -4t-21 -2q-53 0 -88 36t-35 93z" />
<glyph unicode="&#x201a;" horiz-adv-x="501" d="M106 123q0 59 41 100t99 41q63 0 111.5 -48t48.5 -138q0 -106 -53.5 -198.5t-139.5 -151.5l-96 79q25 14 49 37t43.5 48.5t34 53t20.5 54.5q-4 -2 -14 -4t-21 -2q-53 0 -88 36t-35 93z" />
<glyph unicode="&#x201c;" horiz-adv-x="878" d="M94 1038q0 106 52.5 197.5t138.5 150.5l98 -77q-25 -14 -49.5 -37t-45 -48.5t-34.5 -53t-18 -54.5q8 4 34 4q51 0 86 -35.5t35 -93.5q0 -57 -40 -98t-99 -41q-63 0 -110.5 48t-47.5 138zM473 1038q0 106 52.5 197.5t138.5 150.5l98 -77q-25 -14 -49.5 -37t-45 -48.5 t-35 -53t-18.5 -54.5q8 4 35 4q51 0 86 -35.5t35 -93.5q0 -57 -40 -98t-99 -41q-63 0 -110.5 48t-47.5 138z" />
<glyph unicode="&#x201d;" horiz-adv-x="878" d="M106 1245q0 59 41 100t99 41q63 0 111.5 -48t48.5 -138q0 -106 -53.5 -198.5t-139.5 -151.5l-96 80q25 14 49 36.5t43.5 48t34 53.5t20.5 54q-4 -2 -14 -4t-21 -2q-53 0 -88 36t-35 93zM485 1245q0 59 41 100t99 41q63 0 111 -48t48 -138q0 -106 -53 -198.5t-139 -151.5 l-96 80q25 14 49 36.5t43.5 48t34 53.5t20.5 54q-4 -2 -14.5 -4t-20.5 -2q-53 0 -88 36t-35 93z" />
<glyph unicode="&#x201e;" horiz-adv-x="880" d="M106 123q0 59 41 100t99 41q63 0 111.5 -48t48.5 -138q0 -106 -53.5 -198.5t-139.5 -151.5l-96 79q25 14 49 37t43.5 48.5t34 53t20.5 54.5q-4 -2 -14 -4t-21 -2q-53 0 -88 36t-35 93zM485 123q0 59 41 100t99 41q63 0 111 -48t48 -138q0 -106 -53 -198.5t-139 -151.5 l-96 79q25 14 49 37t43.5 48.5t34 53t20.5 54.5q-4 -2 -14.5 -4t-20.5 -2q-53 0 -88 36t-35 93z" />
<glyph unicode="&#x2022;" horiz-adv-x="733" d="M135 496q0 49 18.5 91t50.5 73.5t73.5 50t91.5 18.5q49 0 91 -18.5t73.5 -50t50 -73.5t18.5 -91q0 -47 -18.5 -89t-50 -74t-73.5 -50.5t-91 -18.5t-91 18.5t-74 50.5t-50.5 74t-18.5 89z" />
<glyph unicode="&#x2026;" horiz-adv-x="1503" d="M106 121q0 59 41 101t101 42q59 0 101 -42t42 -101q0 -57 -42 -99t-101 -42t-100.5 41.5t-41.5 99.5zM608 121q0 59 41 101t101 42q59 0 101 -42t42 -101q0 -57 -42 -99t-101 -42t-100.5 41.5t-41.5 99.5zM1110 121q0 59 41 101t100 42t101.5 -42t42.5 -101 q0 -57 -42 -99t-102 -42q-59 0 -100 41.5t-41 99.5z" />
<glyph unicode="&#x202f;" horiz-adv-x="366" />
<glyph unicode="&#x2039;" horiz-adv-x="653" d="M61 498l328 362h203l-328 -362l328 -369h-203z" />
<glyph unicode="&#x203a;" horiz-adv-x="653" d="M61 129l328 369l-328 362h203l328 -362l-328 -369h-203z" />
<glyph unicode="&#x205f;" horiz-adv-x="457" />
<glyph unicode="&#x20ac;" horiz-adv-x="1439" d="M51 471v137h80q-2 16 -2 36v38q0 20 1 38.5t3 39.5h-82v137h107q33 113 98.5 203t155.5 154.5t200.5 99.5t233.5 35q104 0 188 -25t151.5 -68t119 -98t90.5 -117l-205 -104q-49 86 -141.5 142.5t-202.5 56.5q-147 0 -261 -75t-167 -204h553v-137h-592q-2 -18 -3 -38 t-1 -40v-37.5t4 -36.5h592v-137h-555q53 -129 166.5 -206t263.5 -77q111 0 203 56.5t141 142.5l205 -104q-39 -61 -91.5 -116.5t-119 -98.5t-150.5 -68t-188 -25q-125 0 -235.5 35t-201 99.5t-155 155.5t-96.5 206h-107z" />
<glyph unicode="&#x2122;" horiz-adv-x="929" d="M35 1313v53h311v-53h-127v-398h-57v398h-127zM420 915v451h88l131 -328l131 328h88v-451h-57v373l-154 -373h-16l-154 373v-373h-57z" />
<glyph unicode="&#x25fc;" horiz-adv-x="990" d="M0 0v990h990v-990h-990z" />
<hkern g1="B" 	g2="quotedbl,quotesingle,registered,quoteleft,quoteright,quotedblleft,quotedblright,trademark" 	k="20" />
<hkern g1="B" 	g2="T" 	k="31" />
<hkern g1="B" 	g2="W" 	k="20" />
<hkern g1="B" 	g2="V" 	k="31" />
<hkern g1="B" 	g2="Y,Yacute,Ydieresis" 	k="61" />
<hkern g1="C,Ccedilla" 	g2="question" 	k="10" />
<hkern g1="C,Ccedilla" 	g2="W" 	k="10" />
<hkern g1="C,Ccedilla" 	g2="V" 	k="6" />
<hkern g1="C,Ccedilla" 	g2="Y,Yacute,Ydieresis" 	k="41" />
<hkern g1="C,Ccedilla" 	g2="A,Agrave,Aacute,Acircumflex,Atilde,Adieresis,Aring,AE" 	k="10" />
<hkern g1="D,O,Q,Eth,Ograve,Oacute,Ocircumflex,Otilde,Odieresis,Oslash,Thorn" 	g2="question" 	k="41" />
<hkern g1="D,O,Q,Eth,Ograve,Oacute,Ocircumflex,Otilde,Odieresis,Oslash,Thorn" 	g2="quotedbl,quotesingle,registered,quoteleft,quoteright,quotedblleft,quotedblright,trademark" 	k="20" />
<hkern g1="D,O,Q,Eth,Ograve,Oacute,Ocircumflex,Otilde,Odieresis,Oslash,Thorn" 	g2="J" 	k="41" />
<hkern g1="D,O,Q,Eth,Ograve,Oacute,Ocircumflex,Otilde,Odieresis,Oslash,Thorn" 	g2="T" 	k="51" />
<hkern g1="D,O,Q,Eth,Ograve,Oacute,Ocircumflex,Otilde,Odieresis,Oslash,Thorn" 	g2="W" 	k="41" />
<hkern g1="D,O,Q,Eth,Ograve,Oacute,Ocircumflex,Otilde,Odieresis,Oslash,Thorn" 	g2="V" 	k="41" />
<hkern g1="D,O,Q,Eth,Ograve,Oacute,Ocircumflex,Otilde,Odieresis,Oslash,Thorn" 	g2="Y,Yacute,Ydieresis" 	k="82" />
<hkern g1="D,O,Q,Eth,Ograve,Oacute,Ocircumflex,Otilde,Odieresis,Oslash,Thorn" 	g2="A,Agrave,Aacute,Acircumflex,Atilde,Adieresis,Aring,AE" 	k="72" />
<hkern g1="D,O,Q,Eth,Ograve,Oacute,Ocircumflex,Otilde,Odieresis,Oslash,Thorn" 	g2="Z" 	k="31" />
<hkern g1="D,O,Q,Eth,Ograve,Oacute,Ocircumflex,Otilde,Odieresis,Oslash,Thorn" 	g2="comma,period,quotesinglbase,quotedblbase,ellipsis" 	k="51" />
<hkern g1="D,O,Q,Eth,Ograve,Oacute,Ocircumflex,Otilde,Odieresis,Oslash,Thorn" 	g2="X" 	k="61" />
<hkern g1="F" 	g2="J" 	k="133" />
<hkern g1="F" 	g2="A,Agrave,Aacute,Acircumflex,Atilde,Adieresis,Aring,AE" 	k="82" />
<hkern g1="F" 	g2="comma,period,quotesinglbase,quotedblbase,ellipsis" 	k="102" />
<hkern g1="F" 	g2="ampersand" 	k="20" />
<hkern g1="G" 	g2="question" 	k="20" />
<hkern g1="G" 	g2="T" 	k="10" />
<hkern g1="G" 	g2="W" 	k="10" />
<hkern g1="G" 	g2="V" 	k="20" />
<hkern g1="G" 	g2="Y,Yacute,Ydieresis" 	k="31" />
<hkern g1="G" 	g2="A,Agrave,Aacute,Acircumflex,Atilde,Adieresis,Aring,AE" 	k="10" />
<hkern g1="G" 	g2="X" 	k="10" />
<hkern g1="K" 	g2="C,G,O,Q,Ccedilla,Ograve,Oacute,Ocircumflex,Otilde,Odieresis,Oslash,OE" 	k="102" />
<hkern g1="K" 	g2="Y,Yacute,Ydieresis" 	k="31" />
<hkern g1="K" 	g2="f,uniFB01,uniFB02,uniFB03,uniFB04" 	k="61" />
<hkern g1="K" 	g2="u,uni00B5,ugrave,uacute,ucircumflex,udieresis" 	k="41" />
<hkern g1="K" 	g2="t" 	k="92" />
<hkern g1="K" 	g2="w" 	k="82" />
<hkern g1="K" 	g2="v" 	k="123" />
<hkern g1="K" 	g2="y,yacute,ydieresis" 	k="123" />
<hkern g1="K" 	g2="hyphen,periodcentered,endash,emdash" 	k="102" />
<hkern g1="K" 	g2="a,agrave,aacute,acircumflex,atilde,adieresis,aring,ae" 	k="31" />
<hkern g1="K" 	g2="c,d,e,g,o,q,cent,ccedilla,egrave,eacute,ecircumflex,edieresis,eth,ograve,oacute,ocircumflex,otilde,odieresis,oslash,oe" 	k="61" />
<hkern g1="K" 	g2="x" 	k="61" />
<hkern g1="L" 	g2="question" 	k="225" />
<hkern g1="L" 	g2="quotedbl,quotesingle,registered,quoteleft,quoteright,quotedblleft,quotedblright,trademark" 	k="266" />
<hkern g1="L" 	g2="C,G,O,Q,Ccedilla,Ograve,Oacute,Ocircumflex,Otilde,Odieresis,Oslash,OE" 	k="61" />
<hkern g1="L" 	g2="asterisk" 	k="348" />
<hkern g1="L" 	g2="U,Ugrave,Uacute,Ucircumflex,Udieresis" 	k="51" />
<hkern g1="L" 	g2="T" 	k="205" />
<hkern g1="L" 	g2="W" 	k="143" />
<hkern g1="L" 	g2="V" 	k="184" />
<hkern g1="L" 	g2="Y,Yacute,Ydieresis" 	k="256" />
<hkern g1="L" 	g2="u,uni00B5,ugrave,uacute,ucircumflex,udieresis" 	k="20" />
<hkern g1="L" 	g2="t" 	k="72" />
<hkern g1="L" 	g2="w" 	k="72" />
<hkern g1="L" 	g2="v" 	k="113" />
<hkern g1="L" 	g2="y,yacute,ydieresis" 	k="113" />
<hkern g1="L" 	g2="ampersand" 	k="10" />
<hkern g1="L" 	g2="a,agrave,aacute,acircumflex,atilde,adieresis,aring,ae" 	k="20" />
<hkern g1="L" 	g2="c,d,e,g,o,q,cent,ccedilla,egrave,eacute,ecircumflex,edieresis,eth,ograve,oacute,ocircumflex,otilde,odieresis,oslash,oe" 	k="31" />
<hkern g1="P" 	g2="J" 	k="236" />
<hkern g1="P" 	g2="Y,Yacute,Ydieresis" 	k="10" />
<hkern g1="P" 	g2="A,Agrave,Aacute,Acircumflex,Atilde,Adieresis,Aring,AE" 	k="154" />
<hkern g1="P" 	g2="comma,period,quotesinglbase,quotedblbase,ellipsis" 	k="184" />
<hkern g1="P" 	g2="X" 	k="31" />
<hkern g1="P" 	g2="ampersand" 	k="61" />
<hkern g1="P" 	g2="hyphen,periodcentered,endash,emdash" 	k="61" />
<hkern g1="P" 	g2="a,agrave,aacute,acircumflex,atilde,adieresis,aring,ae" 	k="41" />
<hkern g1="P" 	g2="c,d,e,g,o,q,cent,ccedilla,egrave,eacute,ecircumflex,edieresis,eth,ograve,oacute,ocircumflex,otilde,odieresis,oslash,oe" 	k="31" />
<hkern g1="R" 	g2="quotedbl,quotesingle,registered,quoteleft,quoteright,quotedblleft,quotedblright,trademark" 	k="10" />
<hkern g1="R" 	g2="T" 	k="20" />
<hkern g1="R" 	g2="V" 	k="20" />
<hkern g1="R" 	g2="Y,Yacute,Ydieresis" 	k="35" />
<hkern g1="R" 	g2="ampersand" 	k="10" />
<hkern g1="R" 	g2="a,agrave,aacute,acircumflex,atilde,adieresis,aring,ae" 	k="41" />
<hkern g1="R" 	g2="c,d,e,g,o,q,cent,ccedilla,egrave,eacute,ecircumflex,edieresis,eth,ograve,oacute,ocircumflex,otilde,odieresis,oslash,oe" 	k="61" />
<hkern g1="R" 	g2="s" 	k="20" />
<hkern g1="S" 	g2="T" 	k="20" />
<hkern g1="S" 	g2="Y,Yacute,Ydieresis" 	k="20" />
<hkern g1="S" 	g2="t" 	k="31" />
<hkern g1="S" 	g2="w" 	k="10" />
<hkern g1="S" 	g2="v" 	k="20" />
<hkern g1="S" 	g2="y,yacute,ydieresis" 	k="20" />
<hkern g1="S" 	g2="A,Agrave,Aacute,Acircumflex,Atilde,Adieresis,Aring,AE" 	k="20" />
<hkern g1="S" 	g2="x" 	k="31" />
<hkern g1="T" 	g2="C,G,O,Q,Ccedilla,Ograve,Oacute,Ocircumflex,Otilde,Odieresis,Oslash,OE" 	k="51" />
<hkern g1="T" 	g2="J" 	k="174" />
<hkern g1="T" 	g2="S" 	k="10" />
<hkern g1="T" 	g2="f,uniFB01,uniFB02,uniFB03,uniFB04" 	k="51" />
<hkern g1="T" 	g2="u,uni00B5,ugrave,uacute,ucircumflex,udieresis" 	k="154" />
<hkern g1="T" 	g2="w" 	k="82" />
<hkern g1="T" 	g2="v" 	k="82" />
<hkern g1="T" 	g2="y,yacute,ydieresis" 	k="82" />
<hkern g1="T" 	g2="A,Agrave,Aacute,Acircumflex,Atilde,Adieresis,Aring,AE" 	k="133" />
<hkern g1="T" 	g2="comma,period,quotesinglbase,quotedblbase,ellipsis" 	k="195" />
<hkern g1="T" 	g2="ampersand" 	k="113" />
<hkern g1="T" 	g2="hyphen,periodcentered,endash,emdash" 	k="123" />
<hkern g1="T" 	g2="a,agrave,aacute,acircumflex,atilde,adieresis,aring,ae" 	k="174" />
<hkern g1="T" 	g2="c,d,e,g,o,q,cent,ccedilla,egrave,eacute,ecircumflex,edieresis,eth,ograve,oacute,ocircumflex,otilde,odieresis,oslash,oe" 	k="215" />
<hkern g1="T" 	g2="x" 	k="102" />
<hkern g1="T" 	g2="s" 	k="174" />
<hkern g1="T" 	g2="colon,semicolon" 	k="102" />
<hkern g1="T" 	g2="m,n,p,r,z,ntilde" 	k="154" />
<hkern g1="J,U,Ugrave,Uacute,Ucircumflex,Udieresis" 	g2="J" 	k="41" />
<hkern g1="J,U,Ugrave,Uacute,Ucircumflex,Udieresis" 	g2="A,Agrave,Aacute,Acircumflex,Atilde,Adieresis,Aring,AE" 	k="61" />
<hkern g1="J,U,Ugrave,Uacute,Ucircumflex,Udieresis" 	g2="comma,period,quotesinglbase,quotedblbase,ellipsis" 	k="61" />
<hkern g1="V" 	g2="C,G,O,Q,Ccedilla,Ograve,Oacute,Ocircumflex,Otilde,Odieresis,Oslash,OE" 	k="41" />
<hkern g1="V" 	g2="J" 	k="195" />
<hkern g1="V" 	g2="f,uniFB01,uniFB02,uniFB03,uniFB04" 	k="51" />
<hkern g1="V" 	g2="u,uni00B5,ugrave,uacute,ucircumflex,udieresis" 	k="102" />
<hkern g1="V" 	g2="t" 	k="31" />
<hkern g1="V" 	g2="w" 	k="20" />
<hkern g1="V" 	g2="v" 	k="31" />
<hkern g1="V" 	g2="y,yacute,ydieresis" 	k="20" />
<hkern g1="V" 	g2="A,Agrave,Aacute,Acircumflex,Atilde,Adieresis,Aring,AE" 	k="102" />
<hkern g1="V" 	g2="comma,period,quotesinglbase,quotedblbase,ellipsis" 	k="184" />
<hkern g1="V" 	g2="ampersand" 	k="72" />
<hkern g1="V" 	g2="hyphen,periodcentered,endash,emdash" 	k="113" />
<hkern g1="V" 	g2="a,agrave,aacute,acircumflex,atilde,adieresis,aring,ae" 	k="133" />
<hkern g1="V" 	g2="c,d,e,g,o,q,cent,ccedilla,egrave,eacute,ecircumflex,edieresis,eth,ograve,oacute,ocircumflex,otilde,odieresis,oslash,oe" 	k="123" />
<hkern g1="V" 	g2="x" 	k="51" />
<hkern g1="V" 	g2="s" 	k="92" />
<hkern g1="V" 	g2="m,n,p,r,z,ntilde" 	k="102" />
<hkern g1="W" 	g2="C,G,O,Q,Ccedilla,Ograve,Oacute,Ocircumflex,Otilde,Odieresis,Oslash,OE" 	k="41" />
<hkern g1="W" 	g2="J" 	k="102" />
<hkern g1="W" 	g2="f,uniFB01,uniFB02,uniFB03,uniFB04" 	k="31" />
<hkern g1="W" 	g2="u,uni00B5,ugrave,uacute,ucircumflex,udieresis" 	k="61" />
<hkern g1="W" 	g2="t" 	k="31" />
<hkern g1="W" 	g2="v" 	k="10" />
<hkern g1="W" 	g2="y,yacute,ydieresis" 	k="10" />
<hkern g1="W" 	g2="A,Agrave,Aacute,Acircumflex,Atilde,Adieresis,Aring,AE" 	k="92" />
<hkern g1="W" 	g2="comma,period,quotesinglbase,quotedblbase,ellipsis" 	k="133" />
<hkern g1="W" 	g2="ampersand" 	k="41" />
<hkern g1="W" 	g2="hyphen,periodcentered,endash,emdash" 	k="72" />
<hkern g1="W" 	g2="a,agrave,aacute,acircumflex,atilde,adieresis,aring,ae" 	k="82" />
<hkern g1="W" 	g2="c,d,e,g,o,q,cent,ccedilla,egrave,eacute,ecircumflex,edieresis,eth,ograve,oacute,ocircumflex,otilde,odieresis,oslash,oe" 	k="82" />
<hkern g1="W" 	g2="x" 	k="51" />
<hkern g1="W" 	g2="s" 	k="51" />
<hkern g1="W" 	g2="m,n,p,r,z,ntilde" 	k="61" />
<hkern g1="Y,Yacute,Ydieresis" 	g2="C,G,O,Q,Ccedilla,Ograve,Oacute,Ocircumflex,Otilde,Odieresis,Oslash,OE" 	k="82" />
<hkern g1="Y,Yacute,Ydieresis" 	g2="J" 	k="236" />
<hkern g1="Y,Yacute,Ydieresis" 	g2="S" 	k="41" />
<hkern g1="Y,Yacute,Ydieresis" 	g2="f,uniFB01,uniFB02,uniFB03,uniFB04" 	k="113" />
<hkern g1="Y,Yacute,Ydieresis" 	g2="u,uni00B5,ugrave,uacute,ucircumflex,udieresis" 	k="184" />
<hkern g1="Y,Yacute,Ydieresis" 	g2="t" 	k="61" />
<hkern g1="Y,Yacute,Ydieresis" 	g2="w" 	k="123" />
<hkern g1="Y,Yacute,Ydieresis" 	g2="v" 	k="123" />
<hkern g1="Y,Yacute,Ydieresis" 	g2="y,yacute,ydieresis" 	k="123" />
<hkern g1="Y,Yacute,Ydieresis" 	g2="A,Agrave,Aacute,Acircumflex,Atilde,Adieresis,Aring,AE" 	k="133" />
<hkern g1="Y,Yacute,Ydieresis" 	g2="comma,period,quotesinglbase,quotedblbase,ellipsis" 	k="184" />
<hkern g1="Y,Yacute,Ydieresis" 	g2="ampersand" 	k="123" />
<hkern g1="Y,Yacute,Ydieresis" 	g2="hyphen,periodcentered,endash,emdash" 	k="246" />
<hkern g1="Y,Yacute,Ydieresis" 	g2="a,agrave,aacute,acircumflex,atilde,adieresis,aring,ae" 	k="236" />
<hkern g1="Y,Yacute,Ydieresis" 	g2="c,d,e,g,o,q,cent,ccedilla,egrave,eacute,ecircumflex,edieresis,eth,ograve,oacute,ocircumflex,otilde,odieresis,oslash,oe" 	k="256" />
<hkern g1="Y,Yacute,Ydieresis" 	g2="x" 	k="154" />
<hkern g1="Y,Yacute,Ydieresis" 	g2="s" 	k="205" />
<hkern g1="Y,Yacute,Ydieresis" 	g2="colon,semicolon" 	k="133" />
<hkern g1="Y,Yacute,Ydieresis" 	g2="m,n,p,r,z,ntilde" 	k="184" />
<hkern g1="Z" 	g2="C,G,O,Q,Ccedilla,Ograve,Oacute,Ocircumflex,Otilde,Odieresis,Oslash,OE" 	k="31" />
<hkern g1="a,h,m,n,agrave,aacute,acircumflex,atilde,adieresis,aring,ntilde" 	g2="question" 	k="82" />
<hkern g1="a,h,m,n,agrave,aacute,acircumflex,atilde,adieresis,aring,ntilde" 	g2="quotedbl,quotesingle,registered,quoteleft,quoteright,quotedblleft,quotedblright,trademark" 	k="20" />
<hkern g1="a,h,m,n,agrave,aacute,acircumflex,atilde,adieresis,aring,ntilde" 	g2="T" 	k="205" />
<hkern g1="a,h,m,n,agrave,aacute,acircumflex,atilde,adieresis,aring,ntilde" 	g2="W" 	k="92" />
<hkern g1="a,h,m,n,agrave,aacute,acircumflex,atilde,adieresis,aring,ntilde" 	g2="V" 	k="143" />
<hkern g1="a,h,m,n,agrave,aacute,acircumflex,atilde,adieresis,aring,ntilde" 	g2="Y,Yacute,Ydieresis" 	k="225" />
<hkern g1="ampersand" 	g2="T" 	k="143" />
<hkern g1="ampersand" 	g2="W" 	k="82" />
<hkern g1="ampersand" 	g2="V" 	k="102" />
<hkern g1="ampersand" 	g2="Y,Yacute,Ydieresis" 	k="174" />
<hkern g1="asterisk" 	g2="J" 	k="246" />
<hkern g1="asterisk" 	g2="A,Agrave,Aacute,Acircumflex,Atilde,Adieresis,Aring,AE" 	k="195" />
<hkern g1="b,o,p,ograve,oacute,ocircumflex,otilde,odieresis,oslash,thorn" 	g2="question" 	k="102" />
<hkern g1="b,o,p,ograve,oacute,ocircumflex,otilde,odieresis,oslash,thorn" 	g2="quotedbl,quotesingle,registered,quoteleft,quoteright,quotedblleft,quotedblright,trademark" 	k="20" />
<hkern g1="b,o,p,ograve,oacute,ocircumflex,otilde,odieresis,oslash,thorn" 	g2="T" 	k="215" />
<hkern g1="b,o,p,ograve,oacute,ocircumflex,otilde,odieresis,oslash,thorn" 	g2="W" 	k="82" />
<hkern g1="b,o,p,ograve,oacute,ocircumflex,otilde,odieresis,oslash,thorn" 	g2="V" 	k="123" />
<hkern g1="b,o,p,ograve,oacute,ocircumflex,otilde,odieresis,oslash,thorn" 	g2="Y,Yacute,Ydieresis" 	k="246" />
<hkern g1="b,o,p,ograve,oacute,ocircumflex,otilde,odieresis,oslash,thorn" 	g2="comma,period,quotesinglbase,quotedblbase,ellipsis" 	k="10" />
<hkern g1="b,o,p,ograve,oacute,ocircumflex,otilde,odieresis,oslash,thorn" 	g2="x" 	k="72" />
<hkern g1="c,cent,ccedilla" 	g2="question" 	k="51" />
<hkern g1="c,cent,ccedilla" 	g2="quotedbl,quotesingle,registered,quoteleft,quoteright,quotedblleft,quotedblright,trademark" 	k="10" />
<hkern g1="c,cent,ccedilla" 	g2="T" 	k="154" />
<hkern g1="c,cent,ccedilla" 	g2="W" 	k="51" />
<hkern g1="c,cent,ccedilla" 	g2="V" 	k="82" />
<hkern g1="c,cent,ccedilla" 	g2="Y,Yacute,Ydieresis" 	k="133" />
<hkern g1="colon,semicolon" 	g2="T" 	k="102" />
<hkern g1="colon,semicolon" 	g2="Y,Yacute,Ydieresis" 	k="133" />
<hkern g1="e,ae,egrave,eacute,ecircumflex,edieresis,oe" 	g2="question" 	k="82" />
<hkern g1="e,ae,egrave,eacute,ecircumflex,edieresis,oe" 	g2="quotedbl,quotesingle,registered,quoteleft,quoteright,quotedblleft,quotedblright,trademark" 	k="10" />
<hkern g1="e,ae,egrave,eacute,ecircumflex,edieresis,oe" 	g2="asterisk" 	k="31" />
<hkern g1="e,ae,egrave,eacute,ecircumflex,edieresis,oe" 	g2="T" 	k="195" />
<hkern g1="e,ae,egrave,eacute,ecircumflex,edieresis,oe" 	g2="W" 	k="82" />
<hkern g1="e,ae,egrave,eacute,ecircumflex,edieresis,oe" 	g2="V" 	k="113" />
<hkern g1="e,ae,egrave,eacute,ecircumflex,edieresis,oe" 	g2="Y,Yacute,Ydieresis" 	k="225" />
<hkern g1="e,ae,egrave,eacute,ecircumflex,edieresis,oe" 	g2="comma,period,quotesinglbase,quotedblbase,ellipsis" 	k="10" />
<hkern g1="eth" 	g2="comma,period,quotesinglbase,quotedblbase,ellipsis" 	k="10" />
<hkern g1="f" 	g2="question" 	k="-113" />
<hkern g1="f" 	g2="quotedbl,quotesingle,registered,quoteleft,quoteright,quotedblleft,quotedblright,trademark" 	k="-133" />
<hkern g1="f" 	g2="asterisk" 	k="-133" />
<hkern g1="f" 	g2="S" 	k="-51" />
<hkern g1="f" 	g2="U,Ugrave,Uacute,Ucircumflex,Udieresis" 	k="-82" />
<hkern g1="f" 	g2="T" 	k="-82" />
<hkern g1="f" 	g2="W" 	k="-133" />
<hkern g1="f" 	g2="V" 	k="-133" />
<hkern g1="f" 	g2="Y,Yacute,Ydieresis" 	k="-123" />
<hkern g1="f" 	g2="Z" 	k="-82" />
<hkern g1="f" 	g2="comma,period,quotesinglbase,quotedblbase,ellipsis" 	k="92" />
<hkern g1="f" 	g2="X" 	k="-82" />
<hkern g1="f" 	g2="ampersand" 	k="10" />
<hkern g1="f" 	g2="exclam,B,D,E,F,H,I,K,L,M,N,P,R,Egrave,Eacute,Ecircumflex,Edieresis,Igrave,Iacute,Icircumflex,Idieresis,Eth,Ntilde" 	k="-82" />
<hkern g1="f" 	g2="parenright,bracketright,braceright" 	k="-143" />
<hkern g1="g,j,q" 	g2="question" 	k="51" />
<hkern g1="g,j,q" 	g2="T" 	k="154" />
<hkern g1="g,j,q" 	g2="W" 	k="61" />
<hkern g1="g,j,q" 	g2="V" 	k="102" />
<hkern g1="g,j,q" 	g2="Y,Yacute,Ydieresis" 	k="184" />
<hkern g1="g,j,q" 	g2="j" 	k="-102" />
<hkern g1="hyphen,periodcentered,endash,emdash" 	g2="W" 	k="72" />
<hkern g1="hyphen,periodcentered,endash,emdash" 	g2="V" 	k="113" />
<hkern g1="hyphen,periodcentered,endash,emdash" 	g2="Y,Yacute,Ydieresis" 	k="236" />
<hkern g1="hyphen,periodcentered,endash,emdash" 	g2="X" 	k="92" />
<hkern g1="k" 	g2="T" 	k="113" />
<hkern g1="k" 	g2="W" 	k="51" />
<hkern g1="k" 	g2="V" 	k="51" />
<hkern g1="k" 	g2="Y,Yacute,Ydieresis" 	k="143" />
<hkern g1="k" 	g2="bullet" 	k="51" />
<hkern g1="k" 	g2="hyphen,periodcentered,endash,emdash" 	k="51" />
<hkern g1="k" 	g2="c,d,e,g,o,q,cent,ccedilla,egrave,eacute,ecircumflex,edieresis,eth,ograve,oacute,ocircumflex,otilde,odieresis,oslash,oe" 	k="10" />
<hkern g1="comma,period,quotesinglbase,quotedblbase,ellipsis" 	g2="quotedbl,quotesingle,registered,quoteleft,quoteright,quotedblleft,quotedblright,trademark" 	k="164" />
<hkern g1="comma,period,quotesinglbase,quotedblbase,ellipsis" 	g2="U,Ugrave,Uacute,Ucircumflex,Udieresis" 	k="61" />
<hkern g1="comma,period,quotesinglbase,quotedblbase,ellipsis" 	g2="T" 	k="195" />
<hkern g1="comma,period,quotesinglbase,quotedblbase,ellipsis" 	g2="W" 	k="133" />
<hkern g1="comma,period,quotesinglbase,quotedblbase,ellipsis" 	g2="V" 	k="174" />
<hkern g1="comma,period,quotesinglbase,quotedblbase,ellipsis" 	g2="Y,Yacute,Ydieresis" 	k="184" />
<hkern g1="comma,period,quotesinglbase,quotedblbase,ellipsis" 	g2="f,uniFB01,uniFB02,uniFB03,uniFB04" 	k="51" />
<hkern g1="comma,period,quotesinglbase,quotedblbase,ellipsis" 	g2="t" 	k="51" />
<hkern g1="comma,period,quotesinglbase,quotedblbase,ellipsis" 	g2="w" 	k="82" />
<hkern g1="comma,period,quotesinglbase,quotedblbase,ellipsis" 	g2="v" 	k="133" />
<hkern g1="comma,period,quotesinglbase,quotedblbase,ellipsis" 	g2="y,yacute,ydieresis" 	k="113" />
<hkern g1="comma,period,quotesinglbase,quotedblbase,ellipsis" 	g2="c,d,e,g,o,q,cent,ccedilla,egrave,eacute,ecircumflex,edieresis,eth,ograve,oacute,ocircumflex,otilde,odieresis,oslash,oe" 	k="10" />
<hkern g1="comma,period,quotesinglbase,quotedblbase,ellipsis" 	g2="j" 	k="-82" />
<hkern g1="comma,period,quotesinglbase,quotedblbase,ellipsis" 	g2="seven" 	k="143" />
<hkern g1="comma,period,quotesinglbase,quotedblbase,ellipsis" 	g2="one" 	k="184" />
<hkern g1="comma,period,quotesinglbase,quotedblbase,ellipsis" 	g2="zero,six" 	k="51" />
<hkern g1="questiondown" 	g2="j" 	k="-328" />
<hkern g1="quotedbl,quotesingle,quoteleft,quoteright,quotedblleft,quotedblright" 	g2="C,G,O,Q,Ccedilla,Ograve,Oacute,Ocircumflex,Otilde,Odieresis,Oslash,OE" 	k="10" />
<hkern g1="quotedbl,quotesingle,quoteleft,quoteright,quotedblleft,quotedblright" 	g2="J" 	k="205" />
<hkern g1="quotedbl,quotesingle,quoteleft,quoteright,quotedblleft,quotedblright" 	g2="A,Agrave,Aacute,Acircumflex,Atilde,Adieresis,Aring,AE" 	k="205" />
<hkern g1="quotedbl,quotesingle,quoteleft,quoteright,quotedblleft,quotedblright" 	g2="comma,period,quotesinglbase,quotedblbase,ellipsis" 	k="164" />
<hkern g1="quotedbl,quotesingle,quoteleft,quoteright,quotedblleft,quotedblright" 	g2="s" 	k="61" />
<hkern g1="r" 	g2="T" 	k="82" />
<hkern g1="r" 	g2="W" 	k="20" />
<hkern g1="r" 	g2="V" 	k="51" />
<hkern g1="r" 	g2="Y,Yacute,Ydieresis" 	k="102" />
<hkern g1="r" 	g2="comma,period,quotesinglbase,quotedblbase,ellipsis" 	k="174" />
<hkern g1="r" 	g2="X" 	k="31" />
<hkern g1="s" 	g2="question" 	k="92" />
<hkern g1="s" 	g2="quotedbl,quotesingle,registered,quoteleft,quoteright,quotedblleft,quotedblright,trademark" 	k="41" />
<hkern g1="s" 	g2="T" 	k="164" />
<hkern g1="s" 	g2="W" 	k="92" />
<hkern g1="s" 	g2="V" 	k="92" />
<hkern g1="s" 	g2="Y,Yacute,Ydieresis" 	k="195" />
<hkern g1="s" 	g2="X" 	k="10" />
<hkern g1="t" 	g2="T" 	k="82" />
<hkern g1="t" 	g2="W" 	k="31" />
<hkern g1="t" 	g2="V" 	k="61" />
<hkern g1="t" 	g2="Y,Yacute,Ydieresis" 	k="72" />
<hkern g1="u,z,uni00B5,ugrave,uacute,ucircumflex,udieresis" 	g2="question" 	k="51" />
<hkern g1="u,z,uni00B5,ugrave,uacute,ucircumflex,udieresis" 	g2="T" 	k="154" />
<hkern g1="u,z,uni00B5,ugrave,uacute,ucircumflex,udieresis" 	g2="W" 	k="61" />
<hkern g1="u,z,uni00B5,ugrave,uacute,ucircumflex,udieresis" 	g2="V" 	k="102" />
<hkern g1="u,z,uni00B5,ugrave,uacute,ucircumflex,udieresis" 	g2="Y,Yacute,Ydieresis" 	k="184" />
<hkern g1="v" 	g2="T" 	k="82" />
<hkern g1="v" 	g2="W" 	k="10" />
<hkern g1="v" 	g2="V" 	k="31" />
<hkern g1="v" 	g2="Y,Yacute,Ydieresis" 	k="123" />
<hkern g1="v" 	g2="A,Agrave,Aacute,Acircumflex,Atilde,Adieresis,Aring,AE" 	k="41" />
<hkern g1="v" 	g2="comma,period,quotesinglbase,quotedblbase,ellipsis" 	k="133" />
<hkern g1="v" 	g2="X" 	k="72" />
<hkern g1="w" 	g2="T" 	k="82" />
<hkern g1="w" 	g2="V" 	k="20" />
<hkern g1="w" 	g2="Y,Yacute,Ydieresis" 	k="123" />
<hkern g1="w" 	g2="A,Agrave,Aacute,Acircumflex,Atilde,Adieresis,Aring,AE" 	k="31" />
<hkern g1="w" 	g2="comma,period,quotesinglbase,quotedblbase,ellipsis" 	k="82" />
<hkern g1="w" 	g2="X" 	k="82" />
<hkern g1="y,yacute,ydieresis" 	g2="question" 	k="10" />
<hkern g1="y,yacute,ydieresis" 	g2="T" 	k="82" />
<hkern g1="y,yacute,ydieresis" 	g2="W" 	k="10" />
<hkern g1="y,yacute,ydieresis" 	g2="V" 	k="20" />
<hkern g1="y,yacute,ydieresis" 	g2="Y,Yacute,Ydieresis" 	k="123" />
<hkern g1="y,yacute,ydieresis" 	g2="A,Agrave,Aacute,Acircumflex,Atilde,Adieresis,Aring,AE" 	k="41" />
<hkern g1="y,yacute,ydieresis" 	g2="comma,period,quotesinglbase,quotedblbase,ellipsis" 	k="113" />
<hkern g1="y,yacute,ydieresis" 	g2="X" 	k="72" />
<hkern g1="X" 	g2="C,G,O,Q,Ccedilla,Ograve,Oacute,Ocircumflex,Otilde,Odieresis,Oslash,OE" 	k="61" />
<hkern g1="X" 	g2="f,uniFB01,uniFB02,uniFB03,uniFB04" 	k="61" />
<hkern g1="X" 	g2="t" 	k="61" />
<hkern g1="X" 	g2="w" 	k="82" />
<hkern g1="X" 	g2="v" 	k="72" />
<hkern g1="X" 	g2="y,yacute,ydieresis" 	k="72" />
<hkern g1="X" 	g2="hyphen,periodcentered,endash,emdash" 	k="92" />
<hkern g1="zero,nine" 	g2="comma,period,quotesinglbase,quotedblbase,ellipsis" 	k="51" />
<hkern g1="seven" 	g2="comma,period,quotesinglbase,quotedblbase,ellipsis" 	k="195" />
<hkern g1="x" 	g2="T" 	k="102" />
<hkern g1="x" 	g2="W" 	k="51" />
<hkern g1="x" 	g2="V" 	k="51" />
<hkern g1="x" 	g2="Y,Yacute,Ydieresis" 	k="154" />
<hkern g1="x" 	g2="c,d,e,g,o,q,cent,ccedilla,egrave,eacute,ecircumflex,edieresis,eth,ograve,oacute,ocircumflex,otilde,odieresis,oslash,oe" 	k="72" />
<hkern g1="parenleft,bracketleft,braceleft" 	g2="j" 	k="-225" />
</font>
</defs></svg> 